{
  "dogfighting": {
    "created": "2004-02-03",
    "origin": "https://en.ds-servers.com/gf/battlefield-1942/maps-levels-missions/galactic-conquest/gc-dogfighting.html"
  },
  "dunes": {
    "created": "2004-02-17",
    "creator": "Jeff (Zang)",
    "labels": ["Release 2"],
    "origin": "https://en.ds-servers.com/gf/battlefield-1942/maps-levels-missions/galactic-conquest/gc-dunes.html"
  },
  "flood-plains": {
    "created": "2004-09-25",
    "creator": "Tortel",
    "origin": "https://en.ds-servers.com/gf/battlefield-1942/maps-levels-missions/galactic-conquest/gc-flood-plains.html"
  },
  "imperial-air-training": {
    "created": "2004-09-29",
    "origin": "https://en.ds-servers.com/gf/battlefield-1942/maps-levels-missions/galactic-conquest/gc-imperial-air-training-map.html"
  },
  "imperial-assault": {
    "created": "2004-09-29",
    "creator": "Tortel",
    "origin": "https://en.ds-servers.com/gf/battlefield-1942/maps-levels-missions/galactic-conquest/gc-imperial-assult.html"
  },
  "last-stand": {
    "created": "2004-09-29",
    "labels": ["Release 3"],
    "origin": "https://en.ds-servers.com/gf/battlefield-1942/maps-levels-missions/galactic-conquest/gc-last-stand.html"
  },
  "ralltiir": {
    "created": "2004-09-13",
    "creator": "Lowie_Smurf",
    "labels": ["Release 4"],
    "origin": "https://en.ds-servers.com/gf/battlefield-1942/maps-levels-missions/galactic-conquest/ralltiir.html"
  },
  "redemption": {
    "created": "2007-02-11",
    "creator": "canadiens, Lord_Dill, Django",
    "labels": ["Release 5.3"],
    "origin": "https://en.ds-servers.com/gf/battlefield-1942/maps-levels-missions/galactic-conquest/gc-redemption.html"
  },
  "return-to-hoth": {
    "created": "2007-02-10",
    "origin": "https://en.ds-servers.com/gf/battlefield-1942/maps-levels-missions/galactic-conquest/gc-return-to-hoth.html"
  },
  "selonia": {
    "created": "2004-05-15",
    "creator": "Lowie_Smurf",
    "origin": "https://en.ds-servers.com/gf/battlefield-1942/maps-levels-missions/galactic-conquest/gc-selonia.html"
  }
}
