{
  "title": "Siege - Alpha",
  "description": "Siege is a medieval based modification for Battlefield 1942. Siege tries to fill the largely untouched medieval age mod category. The idea for this mod started in the year 2000. After several game engine considerations, Battlefield 1942 was finally chosen.\nSpanning 500 years (1000-1500), Siege tries to capture the feel and struggle of pitting a large invasion force against a heavily fortified defending team. The mod is not completely based on historical accuracy and will use a mix or real and generic elements but will still try to capture some of the realism of war in the middle ages.\n\nNot all battles will be solely based on siege. There will be open battlefields where walking in grouped formations will be encouraged.",
  "categories": ["Battlefield 1942"],
  "origin": "https://megagames.com/patches/siege-mod-v024"
}
