{
  "title": "Siege: Medieval Warfare",
  "description": "Siege: Medieval Warfare is a medieval combat modification for the computer game Battlefield 1942. It is set during the 100 Years War between the Kingdoms of France and England. Fight as a common soldier on open fields or assault a castle using a large array of medieval weaponry and vehicles.\n\nSiege: Medieval Warfare aims to bring an entire new experience to the somewhat out-dated Battlefield 1942. This mod will bring both medieval realism and exciting game-play while keeping a balance between the two.\n\n**The Historic Plot**\nThe Hundred Years War was one of the most important and defining wars of the Middle Ages in Western Europe. In 1337, Edward III, the King of England, laid claim to France. The French royal House of Valois also claimed the throne of France, beginning one of the longest conflicts in human history. For the first part of the war, England, although outnumbered by the French, won many decisive victories. During the latter part of the war, France won some key battles, eventually leading the end of the conflict. The war lasted until 1453 when the French were finally completely victorious.",
  "categories": ["Battlefield 1942"],
  "origin": "https://web.archive.org/web/20110301074723/http://www.bilgerats.com/siege/"
}
