{
  "title": "Battlefield 2: Special Forces Vanilla",
  "date": "2005-11-22",
  "categories": ["Battlefield 2"],
  "origin": "https://en.wikipedia.org/wiki/Battlefield_2#Battlefield_2:_Special_Forces"
}
