<svg enable-background="new 0 0 512 512" viewBox="0 0 512 512" xmlns="http://www.w3.org/2000/svg">
  <path
    d="m75.215 456.428c3.362 8.645 6.935 17.054 10.706 25.208 6.499 14.051 20.762 22.863 36.243 22.863h267.672c15.481 0 29.744-8.813 36.243-22.863 3.775-8.161 7.351-16.578 10.716-25.232l11.596-33.494c15.386-50.3 24.045-106.957 24.045-166.91 0-60.537-8.828-117.713-24.496-168.378l-11.152-32.047c-3.362-8.647-6.936-17.057-10.708-25.212-6.5-14.05-20.763-22.863-36.244-22.863h-267.671c-15.481 0-29.744 8.813-36.243 22.863-3.775 8.161-7.351 16.579-10.716 25.233l-11.155 32.06c-15.661 50.656-24.486 107.82-24.486 168.344 0 59.957 8.66 116.616 24.048 166.919z"
    fill="#000000" />
  <path
    d="m177.62 422.918c-6.268-50.302-9.797-106.962-9.797-166.918 0-45.662 2.066-89.37 5.815-129.847.762-8.222 7.724-14.444 15.982-14.444h228.376c10.693 0 18.48-10.316 15.419-20.561-.349-1.167-.702-2.329-1.059-3.487h-254.557l-.001-.001 4.546-32.065c1.371-8.654 2.827-17.071 4.365-25.232 2.648-14.05 8.459-22.863 14.766-22.863h-79.31c-15.433 0-29.707 8.744-36.19 22.749-3.795 8.197-7.388 16.652-10.77 25.346l-11.153 32.06c-15.662 50.657-24.487 107.821-24.487 168.345 0 59.957 8.66 116.616 24.047 166.918l11.602 33.51c3.377 8.685 6.968 17.131 10.758 25.319 6.483 14.007 20.757 22.753 36.192 22.753h79.31c-4.733 0-9.186-4.962-12.233-13.376 3.586-5.04 4.008-5.632 7.594-10.671l201.034-.001c6.345 0 12.164-3.696 14.682-9.52 2.058-4.761 4.052-9.6 5.968-14.528l-236.174-.001z"
    fill="#000000" />
  <path
    d="m454.249 81.391c-2.197-6.946-4.511-13.81-6.981-20.558-1.157-3.159-4.195-5.236-7.559-5.236h-367.417c-3.364 0-6.402 2.077-7.559 5.236-2.471 6.749-4.785 13.612-6.981 20.558-.98 3.098 1.362 6.27 4.611 6.27h387.276c3.248 0 5.589-3.172 4.61-6.27z"
    fill="#000000" />
  <path
    d="m168.049 81.391c2.197-6.946 4.511-13.81 6.981-20.558 1.157-3.159 4.195-5.236 7.559-5.236h-110.297c-3.364 0-6.402 2.077-7.559 5.236-2.471 6.749-4.785 13.612-6.981 20.558-.98 3.098 1.362 6.27 4.611 6.27h110.297c-3.25 0-5.592-3.172-4.611-6.27z"
    fill="#000000" />
  <path
    d="m454.249 430.609c-2.197 6.946-4.511 13.81-6.981 20.558-1.157 3.159-4.195 5.236-7.559 5.236h-367.417c-3.364 0-6.402-2.077-7.559-5.236-2.471-6.749-4.785-13.612-6.981-20.558-.98-3.098 1.362-6.27 4.611-6.27h387.276c3.248 0 5.589 3.172 4.61 6.27z"
    fill="#000000" />
  <path
    d="m168.049 430.609c2.197 6.946 4.511 13.81 6.981 20.558 1.157 3.159 4.195 5.236 7.559 5.236h-110.297c-3.364 0-6.402-2.077-7.559-5.236-2.471-6.749-4.785-13.612-6.981-20.558-.98-3.098 1.362-6.27 4.611-6.27h110.297c-3.25 0-5.592 3.172-4.611 6.27z"
    fill="#000000" />
  <circle cx="312.11" cy="159.81" fill="#000000" r="24.05" />
  <path
    d="m457.222 419.479c15.059-51.277 22.713-106.236 22.713-163.479 0-57.265-7.651-112.216-22.71-163.481.882-.69 1.686-1.487 2.361-2.408 2.312-3.156 2.99-7.261 1.813-10.981-2.364-7.473-4.683-14.302-7.089-20.875-1.965-5.368-6.776-9.175-12.36-9.99-2.875-7.163-5.909-14.228-9.064-21.05-7.646-16.532-24.545-27.215-43.05-27.215h-267.671c-18.505 0-35.403 10.683-43.05 27.215-3.155 6.821-6.189 13.886-9.064 21.05-5.584.815-10.395 4.621-12.36 9.99-2.406 6.573-4.725 13.402-7.089 20.875-1.176 3.72-.499 7.825 1.813 10.981.675.921 1.479 1.718 2.361 2.407-15.061 51.265-22.712 106.217-22.712 163.482 0 57.244 7.655 112.202 22.714 163.479-.884.69-1.689 1.488-2.365 2.41-2.312 3.156-2.99 7.261-1.813 10.981 2.364 7.473 4.683 14.302 7.089 20.875 1.965 5.368 6.776 9.175 12.36 9.99 2.874 7.162 5.908 14.227 9.064 21.05 7.649 16.532 24.547 27.215 43.052 27.215h267.672c18.505 0 35.403-10.683 43.05-27.215 3.156-6.822 6.189-13.887 9.064-21.05 5.584-.815 10.395-4.621 12.36-9.99 2.406-6.573 4.725-13.402 7.089-20.875 1.176-3.72.499-7.825-1.813-10.981-.676-.922-1.481-1.72-2.365-2.41zm-14.859-2.64h-42.057c10.28-50.504 15.5-104.564 15.5-160.839 0-35.731-2.156-71.104-6.409-105.137-.513-4.11-4.256-7.022-8.372-6.512-4.11.514-7.025 4.262-6.512 8.373 4.176 33.417 6.293 68.165 6.293 103.277 0 56.388-5.332 110.465-15.82 160.839h-71.121c3.811-50.463 5.748-104.528 5.748-160.839 0-21.935-.306-43.878-.905-65.344 14.24-3.041 24.953-15.715 24.953-30.85 0-16.052-12.052-29.332-27.581-31.29-.649-11.303-1.39-22.467-2.211-33.355h71.127c1.759 8.46 3.395 17.109 4.864 25.811.618 3.662 3.793 6.252 7.387 6.252.415 0 .835-.034 1.257-.105 4.084-.69 6.836-4.56 6.147-8.644-1.324-7.842-2.781-15.646-4.339-23.314h42.05c14.966 50.342 22.574 104.414 22.574 160.839 0 56.402-7.608 110.483-22.573 160.838zm-315.348 0c-10.488-50.375-15.82-104.451-15.82-160.839 0-56.408 5.331-110.476 15.819-160.839h71.12c-3.811 50.451-5.745 104.51-5.745 160.839 0 56.307 1.936 110.372 5.747 160.839zm86.163 0c-3.839-50.415-5.791-104.486-5.791-160.839 0-56.376 1.951-110.44 5.79-160.839h85.649c.869 11.427 1.649 23.17 2.327 35.063-12.009 4.463-20.589 16.038-20.589 29.582 0 14.478 9.806 26.701 23.124 30.397.611 21.604.925 43.703.925 65.796 0 56.357-1.952 110.428-5.791 160.839zm98.935-240.484c-9.125 0-16.548-7.423-16.548-16.548s7.423-16.548 16.548-16.548 16.548 7.423 16.548 16.548-7.423 16.548-16.548 16.548zm107.159-142.843c2.199 4.754 4.333 9.638 6.4 14.585h-36.756c-1.94-6.827-3.982-13.554-6.098-20.055-1.589-4.883-3.778-9.267-6.424-13.042h13.443c12.679 0 24.233 7.266 29.435 18.512zm-126.624-2.256c.658 5.487 1.293 11.13 1.903 16.841h-77.101c.61-5.713 1.245-11.355 1.903-16.84 1.118-9.323 2.961-14.288 4.022-16.256h65.252c1.061 1.967 2.903 6.932 4.021 16.255zm-153.947 16.841c1.53-5.232 3.113-10.395 4.747-15.412 3.495-10.744 10.708-17.685 18.372-17.685h45.486c-1.22 4.023-2.171 8.846-2.846 14.471-.727 6.06-1.429 12.301-2.097 18.626zm-45.972-14.585c5.202-11.246 16.756-18.512 29.436-18.512h13.443c-2.647 3.775-4.835 8.159-6.424 13.042-2.117 6.503-4.158 13.229-6.098 20.055h-36.756c2.067-4.948 4.2-9.832 6.399-14.585zm-20.953 29.899c.066-.182.283-.314.516-.314h2.88c.011 0 .021.001.032.001.007 0 .013-.001.02-.001h260.938c4.142 0 7.5-3.358 7.5-7.5s-3.358-7.5-7.5-7.5h-26.523c-.668-6.322-1.37-12.563-2.096-18.626-.675-5.625-1.625-10.447-2.846-14.47h45.486c7.664 0 14.875 6.941 18.372 17.685 1.633 5.015 3.216 10.178 4.747 15.412h-5.073c-4.142 0-7.5 3.358-7.5 7.5s3.358 7.5 7.5 7.5h71.482c.232 0 .449.132.516.314 1.951 5.328 3.844 10.838 5.757 16.75h-379.964c1.912-5.914 3.806-11.423 5.756-16.751zm-2.136 31.75h42.047c-10.279 50.492-15.493 104.546-15.493 160.839 0 56.274 5.22 110.334 15.501 160.839h-42.056c-14.966-50.354-22.575-104.435-22.575-160.839 0-56.425 7.61-110.497 22.576-160.839zm23.089 383.327c-2.199-4.755-4.333-9.638-6.4-14.585h36.757c1.939 6.822 3.98 13.549 6.098 20.055 1.589 4.883 3.778 9.267 6.424 13.042h-13.443c-12.68 0-24.234-7.266-29.436-18.512zm126.624 2.256c-.657-5.48-1.293-11.123-1.903-16.841h77.102c-.61 5.714-1.245 11.356-1.903 16.84-1.118 9.323-2.961 14.288-4.022 16.256h-65.252c-1.061-1.967-2.904-6.932-4.022-16.255zm130.828 16.256h-45.486c1.22-4.023 2.171-8.846 2.846-14.471.727-6.059 1.428-12.301 2.096-18.626h63.663c-1.53 5.231-3.113 10.394-4.746 15.412-3.497 10.744-10.709 17.685-18.373 17.685zm69.091-18.512c-5.202 11.246-16.756 18.512-29.436 18.512h-13.443c2.647-3.775 4.835-8.159 6.424-13.042 2.117-6.505 4.159-13.231 6.098-20.055h36.756c-2.067 4.947-4.2 9.831-6.399 14.585zm20.953-29.899c-.066.182-.283.314-.516.314h-255.852c-4.142 0-7.5 3.358-7.5 7.5s3.358 7.5 7.5 7.5h18.505c.669 6.331 1.371 12.572 2.096 18.626.675 5.625 1.625 10.447 2.846 14.47h-45.486c-7.664 0-14.875-6.941-18.372-17.685-1.634-5.019-3.217-10.181-4.747-15.412h13.089c4.142 0 7.5-3.358 7.5-7.5s-3.358-7.5-7.5-7.5h-79.496c-.232 0-.449-.132-.516-.314-1.951-5.328-3.844-10.838-5.757-16.75h379.963c-1.913 5.914-3.807 11.423-5.757 16.751z" />
</svg>
