<svg enable-background="new 0 0 512 512" viewBox="0 0 512 512" xmlns="http://www.w3.org/2000/svg">
  <path d="m256 64c-8.836 0-16 7.163-16 16v56h32v-56c0-8.837-7.164-16-16-16z" fill="#000000" />
  <circle cx="256" cy="312" fill="#000000" r="192" />
  <path
    d="m424 312c0-92.784-75.216-168-168-168-8.247 0-16.29.794-24.219 1.942 18.372-10.663 38.638-18.427 60.219-22.522-11.666-2.214-23.689-3.419-36-3.419-106.039 0-192 85.961-192 192s85.961 192 192 192c12.311 0 24.334-1.206 36-3.419-21.581-4.096-41.846-11.86-60.218-22.522 7.929 1.146 15.971 1.94 24.218 1.94 92.784 0 168-75.216 168-168z"
    fill="#000000" />
  <circle cx="256" cy="312" fill="#000000" r="152" />
  <path
    d="m256 192c-66.172 0-120 53.832-120 120s53.828 120 120 120 120-53.832 120-120-53.828-120-120-120zm103.699 114.073-71.699-26.073s-18.203-50.058-26.073-71.7c52.608 2.988 94.785 45.162 97.772 97.773zm-109.626-97.773-26.073 71.7s-50.058 18.203-71.7 26.073c2.988-52.611 45.165-94.785 97.773-97.773zm-97.773 109.627 71.7 26.073s18.203 50.058 26.073 71.7c-52.608-2.988-94.785-45.162-97.773-97.773zm109.627 97.773c7.87-21.642 26.073-71.7 26.073-71.7s50.058-18.203 71.699-26.073c-2.987 52.611-45.164 94.785-97.772 97.773z"
    fill="#000000" />
  <circle cx="256" cy="312" fill="#000000" r="24" />
  <path
    d="m272 328c-13.255 0-24-10.745-24-24 0-6.084 2.337-11.575 6.068-15.805-12.335 1-22.068 11.212-22.068 23.805 0 13.255 10.745 24 24 24 7.171 0 13.534-3.208 17.932-8.195-.648.053-1.27.195-1.932.195z"
    fill="#000000" />
  <path
    d="m279.532 113.618v-24.678c14.755-8.397 24.048-24.131 24.048-41.36.001-26.236-21.344-47.58-47.58-47.58s-47.581 21.344-47.581 47.581c0 17.227 9.294 32.962 24.048 41.36v24.678c-99.167 11.683-176.354 96.237-176.354 198.494 0 110.218 89.669 199.887 199.887 199.887s199.887-89.669 199.887-199.887c0-102.257-77.187-186.811-176.355-198.495zm-23.532-98.618c17.965 0 32.581 14.615 32.581 32.581 0 9.256-3.931 17.869-10.497 23.935-3.317-8.981-11.964-15.402-22.083-15.402s-18.766 6.421-22.083 15.402c-6.566-6.066-10.497-14.679-10.497-23.934-.002-17.967 14.614-32.582 32.579-32.582zm-8.532 64.645c0-4.705 3.828-8.532 8.532-8.532s8.532 3.828 8.532 8.532v32.775c-2.831-.119-5.673-.194-8.532-.194s-5.702.075-8.532.194zm8.532 417.355c-101.947 0-184.887-82.94-184.887-184.887s82.94-184.887 184.887-184.887 184.887 82.94 184.887 184.887-82.94 184.887-184.887 184.887z" />
  <path
    d="m111.369 304.957c1.767-35.945 16.767-69.768 42.237-95.238s59.293-40.47 95.238-42.237c35.705-1.752 70.573 9.615 98.206 32.015 3.218 2.609 7.941 2.115 10.549-1.103s2.114-7.941-1.104-10.549c-30.505-24.728-69.003-37.281-108.388-35.344-39.672 1.95-77 18.504-105.108 46.612s-44.663 65.437-46.612 105.108c-1.937 39.389 10.616 77.882 35.344 108.388 1.482 1.828 3.647 2.777 5.831 2.777 1.659 0 3.329-.548 4.718-1.674 3.218-2.608 3.712-7.331 1.104-10.549-22.4-27.633-33.769-62.51-32.015-98.206z" />
  <path
    d="m380.269 211.617c-2.609-3.218-7.331-3.711-10.549-1.103s-3.712 7.331-1.104 10.549c22.399 27.633 33.769 62.51 32.015 98.206-1.767 35.945-16.767 69.768-42.237 95.238s-59.293 40.47-95.238 42.237c-2.401.118-4.792.177-7.184.177-33.166-.001-65.248-11.298-91.022-32.191-3.217-2.608-7.94-2.114-10.549 1.104s-2.114 7.94 1.104 10.549c28.457 23.068 63.86 35.54 100.463 35.539 2.634 0 5.28-.065 7.924-.195 39.671-1.95 77-18.504 105.108-46.612s44.663-65.437 46.612-105.108c1.937-39.392-10.615-77.884-35.343-108.39z" />
  <path
    d="m256 280.564c-17.396 0-31.548 14.153-31.548 31.548 0 17.396 14.152 31.549 31.548 31.549s31.548-14.153 31.548-31.549c0-17.395-14.152-31.548-31.548-31.548zm0 48.097c-9.125 0-16.548-7.424-16.548-16.549s7.423-16.548 16.548-16.548 16.548 7.424 16.548 16.548c0 9.126-7.423 16.549-16.548 16.549z" />
  <path
    d="m383.742 312.113c0-3.154-1.973-5.971-4.937-7.048l-77.11-28.04 15.721-15.721c2.929-2.929 2.929-7.677 0-10.606s-7.678-2.929-10.606 0l-15.721 15.721-28.04-77.11c-1.078-2.964-3.895-4.937-7.048-4.937s-5.971 1.973-7.048 4.937l-28.04 77.11-15.721-15.721c-2.929-2.929-7.678-2.929-10.606 0-2.929 2.929-2.929 7.677 0 10.606l15.721 15.721-77.11 28.04c-2.964 1.078-4.937 3.895-4.937 7.048s1.973 5.971 4.937 7.048l77.11 28.04-15.721 15.721c-2.929 2.929-2.929 7.677 0 10.606 1.464 1.465 3.384 2.197 5.303 2.197s3.839-.732 5.303-2.197l15.721-15.721 28.04 77.11c1.078 2.964 3.895 4.937 7.048 4.937s5.971-1.973 7.048-4.937l28.04-77.11 15.721 15.721c1.464 1.465 3.384 2.197 5.303 2.197s3.839-.732 5.303-2.197c2.929-2.929 2.929-7.677 0-10.606l-15.721-15.721 77.11-28.04c2.964-1.077 4.937-3.894 4.937-7.048zm-98.241 25.016c-2.085.758-3.728 2.4-4.485 4.485l-25.016 68.795-25.016-68.794c-.758-2.085-2.4-3.727-4.485-4.485l-68.794-25.016 68.794-25.016c2.085-.758 3.728-2.4 4.485-4.485l25.016-68.796 25.016 68.794c.758 2.085 2.4 3.727 4.485 4.485l68.794 25.016z" />
  <path
    d="m148.422 287.557c3.232 0 6.217-2.106 7.186-5.363 10.119-34.006 36.461-60.35 70.467-70.471 3.97-1.182 6.231-5.358 5.049-9.328-1.182-3.969-5.355-6.231-9.328-5.049-38.879 11.571-68.997 41.691-80.565 80.57-1.181 3.97 1.08 8.146 5.049 9.327.714.213 1.434.314 2.142.314z" />
  <path
    d="m155.612 342.045c-1.182-3.97-5.358-6.229-9.329-5.048-3.97 1.182-6.23 5.358-5.048 9.328 10.541 35.406 37.455 64.433 71.997 77.647.881.337 1.787.497 2.678.497 3.018 0 5.864-1.835 7.006-4.822 1.48-3.869-.457-8.205-4.325-9.685-30.216-11.559-53.76-36.949-62.979-67.917z" />
  <path
    d="m356.391 342.035c-9.217 30.975-32.764 56.369-62.988 67.929-3.869 1.48-5.806 5.816-4.326 9.684 1.143 2.988 3.988 4.823 7.006 4.823.891 0 1.796-.16 2.678-.497 34.55-13.215 61.468-42.247 72.006-77.66 1.182-3.97-1.079-8.146-5.049-9.328-3.972-1.181-8.145 1.08-9.327 5.049z" />
  <path
    d="m290.211 197.348c-3.967-1.183-8.146 1.078-9.328 5.048s1.079 8.146 5.049 9.328c33.996 10.12 60.335 36.458 70.456 70.455.969 3.256 3.953 5.362 7.185 5.362.708 0 1.429-.101 2.143-.314 3.97-1.182 6.23-5.358 5.048-9.328-11.571-38.867-41.684-68.98-80.553-80.551z" />
</svg>
