<svg enable-background="new 0 0 512 512" viewBox="0 0 512 512" xmlns="http://www.w3.org/2000/svg">
  <path
    d="m223.936 504.5h-192.387c-13.281 0-24.048-10.767-24.048-24.048v-192.387c0-13.282 10.767-24.048 24.048-24.048h192.387c13.282 0 24.048 10.767 24.048 24.048v192.387c0 13.281-10.767 24.048-24.048 24.048z"
    fill="#000000" />
  <path
    d="m31.549 344.177v-80.161c-13.282 0-24.048 10.767-24.048 24.048v192.387c0 13.282 10.767 24.048 24.048 24.048h192.387c13.282 0 24.048-10.767 24.048-24.048h-80.161c-75.262.001-136.274-61.011-136.274-136.274z"
    fill="#000000" />
  <g fill="#000000">
    <path
      d="m143.775 384.258c-.124 8.854-7.402 16.032-16.256 16.032s-15.932-7.178-15.808-16.032 7.402-16.032 16.256-16.032 15.931 7.178 15.808 16.032z" />
    <path
      d="m87.662 328.145c-.124 8.854-7.402 16.032-16.256 16.032s-15.932-7.177-15.808-16.032 7.402-16.032 16.256-16.032 15.932 7.178 15.808 16.032z" />
    <path
      d="m199.887 328.145c-.124 8.854-7.402 16.032-16.256 16.032s-15.932-7.178-15.808-16.032 7.402-16.032 16.256-16.032 15.933 7.178 15.808 16.032z" />
    <path
      d="m87.662 440.371c-.124 8.854-7.402 16.032-16.256 16.032s-15.932-7.178-15.808-16.032 7.402-16.032 16.256-16.032 15.932 7.178 15.808 16.032z" />
    <path
      d="m199.887 440.371c-.124 8.854-7.402 16.032-16.256 16.032s-15.932-7.178-15.808-16.032 7.402-16.032 16.256-16.032 15.933 7.178 15.808 16.032z" />
  </g>
  <path
    d="m480.452 247.984h-192.387c-13.282 0-24.048-10.767-24.048-24.048v-192.388c0-13.282 10.767-24.048 24.048-24.048h192.387c13.282 0 24.048 10.767 24.048 24.048v192.387c0 13.282-10.767 24.049-24.048 24.049z"
    fill="#000000" />
  <path
    d="m288.065 87.661v-80.161c-13.282 0-24.048 10.767-24.048 24.048v192.387c0 13.282 10.767 24.048 24.048 24.048h192.387c13.282 0 24.048-10.767 24.048-24.048h-80.161c-75.262 0-136.274-61.012-136.274-136.274z"
    fill="#000000" />
  <path
    d="m400.29 183.855c-.124 8.854-7.402 16.032-16.256 16.032s-15.932-7.178-15.808-16.032 7.402-16.032 16.256-16.032 15.932 7.177 15.808 16.032z"
    fill="#000000" />
  <path
    d="m400.29 71.629c-.124 8.854-7.402 16.032-16.256 16.032s-15.932-7.178-15.808-16.032 7.402-16.032 16.256-16.032 15.932 7.178 15.808 16.032z"
    fill="#000000" />
  <path
    d="m223.937 256.516h-192.388c-17.396 0-31.548 14.152-31.548 31.548v192.387c0 17.397 14.152 31.549 31.548 31.549h192.387c17.396 0 31.548-14.152 31.548-31.549v-192.387c0-17.396-14.151-31.548-31.547-31.548zm16.547 223.935c0 9.125-7.423 16.549-16.548 16.549h-192.387c-9.125 0-16.548-7.424-16.548-16.549v-192.387c0-9.125 7.423-16.548 16.548-16.548h192.387c9.125 0 16.548 7.423 16.548 16.548z" />
  <path
    d="m71.63 304.613c-12.976 0-23.532 10.557-23.532 23.532s10.557 23.532 23.532 23.532 23.532-10.557 23.532-23.532-10.558-23.532-23.532-23.532zm0 32.064c-4.705 0-8.532-3.828-8.532-8.532s3.828-8.532 8.532-8.532 8.532 3.828 8.532 8.532-3.828 8.532-8.532 8.532z" />
  <path
    d="m183.855 351.677c8.37 0 16.177-4.503 20.374-11.751 2.076-3.584.853-8.173-2.732-10.249-3.584-2.076-8.174-.853-10.249 2.732-1.524 2.633-4.357 4.268-7.394 4.268-4.705 0-8.532-3.828-8.532-8.532s3.828-8.532 8.532-8.532c4.142 0 7.5-3.358 7.5-7.5s-3.358-7.5-7.5-7.5c-12.976 0-23.532 10.557-23.532 23.532s10.558 23.532 23.533 23.532z" />
  <path
    d="m89.273 441.896c-3.584-2.075-8.173-.849-10.248 2.736-1.524 2.635-4.358 4.271-7.396 4.271-4.705 0-8.532-3.828-8.532-8.532s3.828-8.532 8.532-8.532c4.142 0 7.5-3.358 7.5-7.5s-3.358-7.5-7.5-7.5c-12.976 0-23.532 10.557-23.532 23.532s10.557 23.532 23.532 23.532c8.374 0 16.182-4.506 20.379-11.76 2.075-3.585.85-8.173-2.735-10.247z" />
  <path
    d="m127.743 360.726c-12.976 0-23.532 10.557-23.532 23.533s10.557 23.532 23.532 23.532c12.976 0 23.533-10.557 23.533-23.532-.001-12.977-10.557-23.533-23.533-23.533zm0 32.065c-4.705 0-8.532-3.828-8.532-8.532 0-4.705 3.828-8.533 8.532-8.533 4.705 0 8.533 3.828 8.533 8.533-.001 4.704-3.828 8.532-8.533 8.532z" />
  <path
    d="m183.855 416.839c-12.976 0-23.532 10.557-23.532 23.532s10.557 23.532 23.532 23.532 23.532-10.557 23.532-23.532-10.556-23.532-23.532-23.532zm0 32.064c-4.705 0-8.532-3.828-8.532-8.532s3.828-8.532 8.532-8.532 8.532 3.828 8.532 8.532-3.826 8.532-8.532 8.532z" />
  <path
    d="m480.452 0h-192.388c-17.396 0-31.548 14.152-31.548 31.548v192.387c0 17.396 14.152 31.548 31.548 31.548h192.387c17.396 0 31.548-14.152 31.548-31.548v-192.387c.001-17.396-14.151-31.548-31.547-31.548zm16.548 223.936c0 9.125-7.423 16.548-16.548 16.548h-192.388c-9.125 0-16.548-7.423-16.548-16.548v-192.388c0-9.125 7.423-16.548 16.548-16.548h192.387c9.126 0 16.549 7.423 16.549 16.548z" />
  <path
    d="m384.258 48.097c-12.976 0-23.533 10.557-23.533 23.532s10.557 23.532 23.533 23.532 23.532-10.557 23.532-23.532-10.556-23.532-23.532-23.532zm0 32.064c-4.705 0-8.533-3.828-8.533-8.532s3.828-8.532 8.533-8.532 8.532 3.828 8.532 8.532-3.826 8.532-8.532 8.532z" />
  <path
    d="m401.9 185.379c-3.584-2.073-8.173-.849-10.248 2.737-1.524 2.634-4.357 4.271-7.395 4.271-4.705 0-8.533-3.828-8.533-8.532s3.828-8.532 8.533-8.532c4.142 0 7.5-3.358 7.5-7.5s-3.358-7.5-7.5-7.5c-12.976 0-23.533 10.557-23.533 23.532s10.557 23.532 23.533 23.532c8.374 0 16.183-4.506 20.379-11.76 2.075-3.585.85-8.173-2.736-10.248z" />
</svg>
