<svg enable-background="new 0 0 512 512" viewBox="0 0 512 512" xmlns="http://www.w3.org/2000/svg">
  <path
    d="m352.936 135.758v-24.048s43.087-30.033 48.097-60.789c2.67-16.391-4.676-34.736-28.056-34.736-19.038 0-23.714 11.579-42.753 11.579-24.048 0-33.401-20.263-73.481-20.263s-49.432 20.263-73.481 20.263c-19.038 0-23.715-11.579-42.753-11.579-23.38 0-30.726 18.345-28.056 34.736 5.01 30.756 48.097 60.789 48.097 60.789l-1.132 24.048c-22.543 37.421-80.166 158.691-87.714 292.05-1.093 19.309 9.969 37.17 27.438 45.615 28.623 13.836 79.758 31.077 156.858 31.077h.743c76.79 0 127.718-17.241 156.227-31.078 17.399-8.444 28.416-26.305 27.327-45.615-7.519-133.358-64.908-254.628-87.361-292.049z"
    fill="#000000" />
  <path
    d="m361.879 159.806c-3.347-6.348-6.381-19.778-8.943-24.048v-16.032h-129.001c-7.114-11.007-24.053-47.831-25.91-68.805-.888-10.03.295-20.75 4.233-27.592-5.827 2.575-11.741 4.434-18.996 4.434-19.038 0-23.715-11.579-42.753-11.579-23.38 0-30.726 18.345-28.056 34.736 5.01 30.756 48.097 60.789 48.097 60.789l-1.132 24.048c-22.54 37.415-80.148 158.653-87.711 291.987-1.097 19.341 9.958 37.225 27.397 45.659 28.617 13.842 79.763 31.097 156.896 31.097h.743c5.059 0 9.99-.084 14.826-.228-39.34-1.205-65.799-17.526-80.778-30.85-9.494-8.444-15.506-26.305-14.912-45.615 3.009-97.804 20.648-182.176 34.674-237.656 4.508-17.832 20.49-30.346 38.883-30.346z"
    fill="#000000" />
  <path
    d="m354.826 134.5h-197.652c-7.4 0-13.4-5.999-13.4-13.4v-3.066c0-7.401 5.999-13.4 13.4-13.4h197.652c7.4 0 13.4 5.999 13.4 13.4v3.066c0 7.401-6 13.4-13.4 13.4z"
    fill="#000000" />
  <path
    d="m247.984 119.567c0-8.247 5.383-14.933 12.024-14.933h-104.21c-6.641 0-12.024 6.686-12.024 14.933s5.383 14.933 12.024 14.933h104.21c-6.641 0-12.024-6.686-12.024-14.933z"
    fill="#000000" />
  <circle cx="224.68" cy="272.03" fill="#000000" r="16.03" />
  <circle cx="111.71" cy="223.94" fill="#000000" r="16.03" />
  <path
    d="m447.042 427.386c-3.307-58.646-16.256-120.573-38.49-184.059-15.391-43.947-32.532-80.451-45.055-102.969 7.281-4.005 12.228-11.751 12.228-20.632 0-7.127-3.19-13.52-8.211-17.839 13.965-10.881 36.334-31.312 40.162-53.002 1.936-10.969-.583-21.585-6.909-29.125-4.494-5.357-13.092-11.742-28.533-11.742-11.131 0-18.211 3.191-24.458 6.006-5.574 2.512-10.388 4.682-18.295 4.682-8.845 0-15.408-3.039-23.717-6.886-11.373-5.267-25.526-11.82-49.764-11.82s-38.391 6.553-49.764 11.818c-8.309 3.847-14.873 6.886-23.717 6.886-7.907 0-12.721-2.169-18.295-4.682-6.247-2.815-13.327-6.006-24.458-6.006-15.441 0-24.039 6.385-28.533 11.742-6.327 7.541-8.845 18.156-6.909 29.125 3.828 21.69 26.197 42.122 40.162 53.002-5.022 4.319-8.211 10.712-8.211 17.839 0 8.887 4.952 16.637 12.241 20.64-6.321 11.405-17.018 32.092-29.152 61.323-2.402-.829-4.975-1.285-7.654-1.285-12.976 0-23.532 10.557-23.532 23.532 0 9.764 5.979 18.157 14.467 21.714-21.453 61.897-34.463 124.56-37.687 181.737-1.249 22.159 11.131 42.878 31.541 52.784 29.918 14.522 81.876 31.831 159.501 31.831s129.583-17.309 159.502-31.83c20.409-9.906 32.79-30.625 31.54-52.784zm-287.235-299.128c-4.705 0-8.532-3.828-8.532-8.533s3.828-8.532 8.532-8.532h192.378c.005 0 .01.001.016.001h.005c4.699.007 8.52 3.831 8.52 8.532 0 4.705-3.828 8.533-8.532 8.533h-192.387zm28.922 15c-7.271 4.035-14.672 8.875-22.187 14.521-6.211 4.667-12.109 9.598-17.636 14.564 6.647-13.774 12.003-23.531 15.196-29.085zm-69.634-96.981c-1.163-6.591.16-12.743 3.629-16.878 3.553-4.236 9.287-6.383 17.042-6.383 7.907 0 12.721 2.169 18.294 4.682 6.247 2.815 13.327 6.006 24.458 6.006 12.149 0 20.829-4.019 30.02-8.274 11.076-5.128 22.528-10.43 43.462-10.43s32.386 5.302 43.461 10.43c9.19 4.255 17.871 8.274 30.02 8.274 11.131 0 18.211-3.191 24.458-6.006 5.574-2.512 10.388-4.682 18.294-4.682 7.755 0 13.489 2.147 17.042 6.383 3.469 4.135 4.792 10.287 3.629 16.878-1.752 9.929-9.862 21.801-23.451 34.332-8.169 7.532-16.11 13.225-19.545 15.584h-75.918c7.857-9.937 11.747-19.12 11.978-19.675 1.591-3.818-.212-8.196-4.027-9.795-3.814-1.597-8.207.2-9.813 4.012-.065.155-6.384 14.9-18.797 25.458h-36.095c-21.194-7.772-43.194-36.786-43.417-37.083-2.486-3.312-7.184-3.981-10.498-1.497-3.313 2.485-3.985 7.187-1.5 10.5.693.924 11.912 15.738 27.005 28.081h-26.737c-3.436-2.36-11.377-8.053-19.545-15.584-13.587-12.532-21.696-24.403-23.449-34.333zm-7.386 169.126c4.705 0 8.532 3.828 8.532 8.532s-3.828 8.532-8.532 8.532-8.532-3.828-8.532-8.532 3.828-8.532 8.532-8.532zm297.243 251.273c-28.503 13.833-78.177 30.324-152.952 30.324s-124.449-16.491-152.952-30.324c-14.949-7.256-24.021-22.347-23.114-38.445 4.029-71.467 22.741-137.614 38.284-181.685 9.819-2.831 17.024-11.892 17.024-22.61 0-4.615-1.341-8.921-3.646-12.558.004-.011.009-.021.013-.032 19.884-22.75 63.373-66.339 105.826-68.031-4.369 4.951-9.234 11.22-13.829 18.781-11.708 19.27-23.811 50.889-15.04 92.14-4.994 4.318-8.163 10.693-8.163 17.797 0 12.976 10.557 23.532 23.532 23.532s23.532-10.557 23.532-23.532-10.556-23.533-23.531-23.533c-.402 0-.801.01-1.198.03-5.397-27.872-.948-53.967 13.244-77.6 9.233-15.376 19.925-24.877 23.306-27.672h29.422c2.151 3.443 8.207 14.05 10.678 27.887.649 3.632 3.81 6.183 7.375 6.183.438 0 .881-.039 1.327-.118 4.078-.729 6.793-4.624 6.065-8.702-1.836-10.281-5.327-19.049-8.357-25.25h42.108c12.301 21.289 30.329 58.875 46.493 105.027 21.769 62.159 34.443 122.702 37.67 179.945.905 16.099-8.168 31.19-23.117 38.446zm-185.016-203.176c4.705 0 8.532 3.828 8.532 8.532s-3.828 8.532-8.532 8.532-8.532-3.828-8.532-8.532 3.827-8.532 8.532-8.532z" />
  <path
    d="m366.994 223.887c-2.195-5.517-4.464-11.027-6.742-16.376-1.623-3.811-6.028-5.583-9.839-3.961-3.811 1.624-5.584 6.028-3.961 9.839 2.232 5.24 4.455 10.638 6.605 16.044 1.17 2.939 3.989 4.729 6.971 4.729.922 0 1.861-.171 2.771-.533 3.848-1.532 5.726-5.894 4.195-9.742z" />
  <path
    d="m378.901 255.875c-1.358-3.914-5.634-5.983-9.545-4.626-3.913 1.358-5.984 5.632-4.626 9.545 9.712 27.98 17.615 56.082 23.488 83.523.754 3.521 3.865 5.932 7.327 5.932.52 0 1.048-.054 1.577-.167 4.05-.867 6.631-4.854 5.764-8.904-6.002-28.042-14.072-56.742-23.985-85.303z" />
  <path
    d="m135.251 272.912c-3.954-1.237-8.161.962-9.399 4.914-12.245 39.077-20.82 77.608-25.489 114.521-.52 4.109 2.391 7.862 6.5 8.382.319.04.636.06.95.06 3.723 0 6.952-2.77 7.432-6.56 4.557-36.033 12.941-73.687 24.92-111.917 1.239-3.954-.961-8.162-4.914-9.4z" />
</svg>
