<svg enable-background="new 0 0 512.003 512.003" viewBox="0 0 512.003 512.003"
  xmlns="http://www.w3.org/2000/svg">
  <path
    d="m384.002 8.001s-95.997 47.999-175.997 56c-.002 0-.004-.001-.004 0 .01.048 8.019 40.01 40 56l88-16c56.001-32 48.001-96 48.001-96z"
    fill="#000000" />
  <path
    d="m209.969 71.186c3.93 12.261 14.481 37.039 38.033 48.815l61.93-11.26c-1.678-1.496-3.564-3.05-5.93-4.74-26.463-18.902-40.334-35.962-47.697-48.758-13.737 3.411-27.633 6.224-41.184 7.948-3.874.493-6.344 4.275-5.152 7.995z"
    fill="#000000" />
  <path d="m408.002 104.001h-80v80h160c0-44.183-35.817-80-80-80z" fill="#000000" />
  <path d="m456.002 184.001c0-17.673-14.327-32-32-32h-96v32z" fill="#000000" />
  <path
    d="m304.002 88.001h-8c-44.183 0-80 35.817-80 80v54.667l-112.028 141.346c-14.754 5.759-39.335 9.585-60.248 11.165-7.274.55-10.171 9.823-4.372 14.249 24.11 18.402 59.289 33.941 109.557 34.554 124.881 1.523 227.091-102.338 227.091-227.227v-30.428c0-46.128-32.236-78.326-72-78.326z"
    fill="#000000" />
  <path
    d="m304.002 88.001h-8c-44.183 0-80 35.817-80 80v54.667l-112.028 141.346c-14.754 5.759-39.335 9.584-60.248 11.166-5.652.427-8.599 6.105-6.939 10.699 45.398 2.472 153.389-.91 203.215-81.877l8-80v-72c0-33.994 26.523-61.72 59.994-63.798-1.331-.074-2.646-.203-3.994-.203z"
    fill="#000000" />
  <path
    d="m192.455 420.135c89.467-16.936 160.571-88.312 178.923-177.764-59.295 7.804-170.478 40.852-178.923 177.764z"
    fill="#000000" />
  <path
    d="m273.771 234.349c-6.345-11.918-19.508-18.625-32.871-16.692-77.419 11.196-136.898 77.824-136.898 158.344v6.572c0 4.181 3.191 7.686 7.361 7.984 12.409.887 25.948 1.445 40.639 1.445 66.786 0 125.607-34.099 160.003-85.837z"
    fill="#000000" />
  <circle cx="328.001" cy="144.001" fill="#000000" r="16" />
  <path
    d="m141.815 389.246v-6.572c0-70.326 45.408-129.959 108.483-151.399 7.164-2.435 6.02-12.983-1.505-13.774-2.589-.272-5.237-.229-7.894.155-77.419 11.196-136.898 77.824-136.898 158.344v6.572c0 4.201 3.239 7.69 7.429 7.989 9.549.681 19.979 1.074 30.874 1.261-.278-.817-.489-1.67-.489-2.576z"
    fill="#000000" />
  <path
    d="m408.309 96.194h-52.215c17.025-13.876 28.53-32.713 33.483-55.002 4.256-19.15 2.197-34.124 2.107-34.752-.341-2.387-1.809-4.464-3.944-5.583s-4.679-1.143-6.835-.064c-.95.475-95.86 47.569-173.747 55.358-3.914.391-6.86 3.739-6.751 7.671.03 1.08 1.039 25.753 27.529 48.927-12.197 15.063-19.516 34.229-19.516 55.074v50.075c-59.973 21.119-104.449 75.393-111.301 140.712-19.079 6.295-52.043 10.133-73.586 10.133-3.033 0-5.768 1.827-6.929 4.63-1.161 2.802-.519 6.028 1.626 8.173 22.943 22.944 64.74 50.294 133.562 50.294 28.777 0 56.752-5.213 82.854-15.178l19.292 64.307h-25.046c-5.915 0-11.233 3.287-13.878 8.577l-5.8 11.601c-1.852 3.705-.351 8.21 3.354 10.062 3.706 1.852 8.21.35 10.063-3.354l5.8-11.601c.088-.176.265-.285.462-.285h35.099c.008 0 .016.002.024.002.009 0 .018-.002.027-.002h16.902c8.746 0 17.503 2.067 25.325 5.979l18.524 9.262c1.077.538 2.221.793 3.348.793 2.751 0 5.4-1.52 6.714-4.148 1.853-3.705.351-8.21-3.354-10.062l-18.524-9.262c-9.894-4.947-20.971-7.562-32.033-7.562h-11.346l-21.048-70.158c24.705-11.349 47.458-27.111 67.256-46.909 43.81-43.81 67.937-102.058 67.937-164.014v-8.533h104.726c4.142 0 7.5-3.357 7.5-7.5 0-48.336-39.325-87.661-87.661-87.661zm-191.626-26.041c64.009-8.279 134.4-38.814 160.539-50.97-.132 5.187-.72 11.896-2.404 19.277-4.908 21.51-16.432 38.52-34.236 50.584-10.939-5.663-23.338-8.883-36.482-8.883h-8.016c-22.097 0-42.308 8.222-57.742 21.763-14.146-12.167-19.581-24.443-21.659-31.771zm-120.488 306.09v5.799c-8.017-.806-15.423-1.74-22.179-2.729 7.818-1.289 15.423-2.87 22.201-4.758-.006.563-.022 1.124-.022 1.688zm272.549-176.355c0 57.95-22.567 112.431-63.543 153.408s-95.458 63.544-153.408 63.544c-38.087 0-70.753-8.575-97.532-25.536 22.425 4.192 55.587 8.472 97.532 8.472 67.103 0 129.373-33.405 166.572-89.357 2.293-3.449 1.356-8.104-2.093-10.397s-8.104-1.355-10.398 2.093c-34.412 51.76-92.012 82.662-154.081 82.662-2.891 0-5.726-.029-8.533-.07v-8.462c0-20.432 5.221-40.634 15.098-58.421 2.011-3.622.705-8.188-2.916-10.198-3.622-2.01-8.187-.705-10.198 2.916-11.11 20.01-16.983 42.729-16.983 65.703v8.053c-5.913-.242-11.602-.569-17.064-.962v-7.091c0-84.267 68.556-152.822 152.823-152.822 4.142 0 7.5-3.358 7.5-7.5s-3.358-7.5-7.5-7.5c-13.995 0-27.592 1.733-40.597 4.976v-45.573c0-40.065 32.596-72.661 72.661-72.661h8.016c35.646 0 64.645 29 64.645 64.646v40.077zm14.986-40.597h40.61c10.93 0 20.211 7.177 23.389 17.064h-63.987v-16.548c.002-.173-.01-.343-.012-.516zm79.453 17.064c-3.516-18.24-19.591-32.064-38.842-32.064h-42.126c-2.435-12.279-7.706-23.542-15.093-33.097h41.187c37.535 0 68.513 28.605 72.277 65.161z" />
  <path
    d="m328.147 120.243c-12.976 0-23.532 10.557-23.532 23.532s10.557 23.532 23.532 23.532 23.532-10.557 23.532-23.532-10.556-23.532-23.532-23.532zm0 32.065c-4.705 0-8.532-3.828-8.532-8.532 0-4.705 3.828-8.532 8.532-8.532s8.532 3.827 8.532 8.532c0 4.703-3.827 8.532-8.532 8.532z" />
  <path
    d="m174.313 274.422c-4.267 3.763-8.34 7.836-12.106 12.105-2.74 3.106-2.444 7.846.662 10.586 1.426 1.258 3.196 1.876 4.959 1.876 2.077 0 4.145-.858 5.627-2.539 3.354-3.802 6.981-7.428 10.78-10.779 3.106-2.74 3.404-7.479.664-10.586s-7.479-3.403-10.586-.663z" />
</svg>
