<svg enable-background="new 0 0 512 512" viewBox="0 0 512 512" xmlns="http://www.w3.org/2000/svg">
  <circle cx="23.532" cy="59.08" fill="#000000" r="16.03" />
  <circle cx="488.47" cy="59.08" fill="#000000" r="16.03" />
  <path
    d="m87.661 99.159v301.263c0 3.326 2.054 6.307 5.162 7.491l157.469 59.988c3.676 1.4 7.739 1.4 11.415 0l157.469-59.988c3.108-1.184 5.162-4.165 5.162-7.491v-301.263c0-4.427-3.589-8.016-8.016-8.016h-320.645c-4.427 0-8.016 3.589-8.016 8.016z"
    fill="#000000" />
  <g fill="#000000">
    <path
      d="m119.726 91.143h-24.049c-4.427 0-8.016 3.589-8.016 8.016v301.263c0 3.326 2.054 6.307 5.162 7.491l26.902 10.249z" />
    <path
      d="m392.274 91.143h24.048c4.427 0 8.016 3.589 8.016 8.016v301.263c0 3.326-2.054 6.307-5.162 7.491l-26.902 10.249z" />
    <path
      d="m209.948 211.381c-6.342 9.09-10.061 20.145-10.061 32.069v24.048c0 8.854 7.178 16.032 16.032 16.032h8.016v16.032h64.129v-16.032h8.016c8.854 0 16.032-7.178 16.032-16.032v-24.048c0-11.924-3.719-22.979-10.061-32.069" />
  </g>
  <path
    d="m256 139.24c26.72 0 44.534 32.065 80.161 40.081l-12.89 23.202c-3.017 5.431-9.186 8.862-15.933 8.862h-102.676c-6.747 0-12.916-3.431-15.933-8.862l-12.89-23.202c35.627-8.016 53.441-40.081 80.161-40.081z"
    fill="#000000" />
  <path
    d="m488.468 36.072c-10.353 0-19.16 6.724-22.3 16.032h-420.336c-3.139-9.308-11.946-16.032-22.3-16.032-12.975 0-23.532 10.556-23.532 23.532s10.557 23.532 23.532 23.532c10.353 0 19.16-6.724 22.3-16.032h34.329v332.793c0 6.396 4.016 12.223 9.993 14.5l157.469 59.988c2.701 1.029 5.539 1.543 8.377 1.543s5.676-.515 8.377-1.543l157.469-59.988c5.977-2.277 9.993-8.104 9.993-14.5v-332.793h34.329c3.139 9.308 11.946 16.032 22.3 16.032 12.975 0 23.532-10.556 23.532-23.532s-10.557-23.532-23.532-23.532zm-464.936 32.064c-4.705 0-8.532-3.828-8.532-8.532s3.828-8.532 8.532-8.532 8.532 3.828 8.532 8.532-3.827 8.532-8.532 8.532zm393.307 16.032h-41.839c-4.142 0-7.5 3.358-7.5 7.5s3.358 7.5 7.5 7.5h9.774v281.081c0 4.142 3.358 7.5 7.5 7.5s7.5-3.358 7.5-7.5v-281.081h17.064v300.729c0 .213-.134.407-.333.482l-157.469 59.988c-1.959.746-4.116.746-6.075 0l-157.467-59.988c-.199-.076-.333-.27-.333-.482v-300.729h17.064v17.831c0 4.142 3.358 7.5 7.5 7.5s7.5-3.358 7.5-7.5v-17.831h217.775c4.142 0 7.5-3.358 7.5-7.5s-3.358-7.5-7.5-7.5h-249.839v-17.064h321.678zm71.629-16.032c-4.705 0-8.532-3.828-8.532-8.532s3.828-8.532 8.532-8.532 8.532 3.827 8.532 8.532-3.828 8.532-8.532 8.532z" />
  <path
    d="m256 260.523c-4.142 0-7.5 3.358-7.5 7.5v8.016c0 4.142 3.358 7.5 7.5 7.5s7.5-3.358 7.5-7.5v-8.016c0-4.142-3.358-7.5-7.5-7.5z" />
  <path
    d="m231.882 240.483c-3.098 0-5.997 1.213-8.162 3.417-2.166 2.204-3.328 5.124-3.274 8.222.109 6.273 5.302 11.377 11.576 11.377 3.098 0 5.997-1.213 8.162-3.417 2.166-2.204 3.328-5.124 3.274-8.223-.109-6.272-5.302-11.376-11.576-11.376z" />
  <path
    d="m337.808 172.529c-15.937-3.586-28.125-12.564-39.912-21.248-13.275-9.779-25.815-19.016-41.896-19.016s-28.62 9.237-41.896 19.016c-11.787 8.683-23.976 17.662-39.912 21.248-2.306.519-4.232 2.094-5.198 4.25-.966 2.157-.859 4.643.289 6.709l12.89 23.202c3.26 5.868 8.902 10.072 15.52 11.82-3.489 7.971-5.305 16.599-5.305 25.465v24.049c0 12.976 10.557 23.532 23.532 23.532h.516v8.532c0 4.142 3.358 7.5 7.5 7.5h64.129c4.142 0 7.5-3.358 7.5-7.5v-8.532h.516c12.976 0 23.532-10.557 23.532-23.532v-24.049c0-8.866-1.817-17.494-5.305-25.465 6.618-1.747 12.26-5.951 15.52-11.819l12.89-23.202c1.148-2.066 1.254-4.552.289-6.709-.967-2.157-2.894-3.733-5.199-4.251zm-49.744 104.027c-4.142 0-7.5 3.358-7.5 7.5v8.532h-49.129v-8.532c0-4.142-3.358-7.5-7.5-7.5h-8.016c-4.705 0-8.532-3.828-8.532-8.532v-24.049c0-8.72 2.291-17.137 6.654-24.564h22.82l57.145 57.146h-5.942zm9.895-57.146c4.363 7.427 6.654 15.845 6.654 24.564v21.975l-46.539-46.539zm18.755-20.004c-1.688 3.04-5.369 5.004-9.376 5.004h-5.279c-.065 0-.129-.001-.194 0h-61.895c-.002 0-.003 0-.005 0h-29.833c-.063-.001-.126 0-.189 0h-5.282c-4.007 0-7.688-1.964-9.376-5.005l-8.325-14.984c14.373-5.102 25.773-13.5 36.041-21.063 11.723-8.636 21.847-16.093 32.999-16.093s21.276 7.458 32.999 16.093c10.267 7.563 21.667 15.961 36.041 21.063z" />
  <path
    d="m119.726 139.499c-4.142 0-7.5 3.358-7.5 7.5v233.25c0 4.142 3.358 7.5 7.5 7.5s7.5-3.358 7.5-7.5v-233.25c0-4.142-3.358-7.5-7.5-7.5z" />
  <path
    d="m334.853 312.766c-1.852-3.705-6.357-5.208-10.062-3.354l-68.791 34.396-68.791-34.396c-3.705-1.853-8.21-.351-10.062 3.354-1.853 3.705-.351 8.21 3.354 10.062l58.729 29.365-58.729 29.365c-3.705 1.852-5.207 6.357-3.354 10.062 1.314 2.628 3.962 4.147 6.714 4.147 1.127 0 2.271-.255 3.348-.793l68.791-34.396 68.791 34.396c1.077.539 2.221.793 3.348.793 2.751 0 5.4-1.52 6.714-4.147 1.853-3.705.351-8.21-3.354-10.062l-58.729-29.365 58.729-29.365c3.705-1.852 5.207-6.357 3.354-10.062z" />
</svg>
