<svg enable-background="new 0 0 512 512" viewBox="0 0 512 512" xmlns="http://www.w3.org/2000/svg">
  <path
    d="m400.29 243.976h-288.58c-81.665-21.794-104.21 0-104.21 8.016s7.265 16.032 18.788 16.032h229.712s125.503 0 229.712 0c11.523 0 18.788-8.016 18.788-16.032s-22.545-29.81-104.21-8.016z"
    fill="#000000" />
  <path
    d="m485.712 268.024c-104.21 0-117.486-128.258-229.712-128.258s-125.503 128.258-229.712 128.258c-7.842 0-13.639-3.742-16.589-8.64l.064.216 60.476 97.474c5.848 9.426 16.153 15.16 27.246 15.16h317.029c11.093 0 21.399-5.734 27.246-15.16l60.476-97.474c.001 0-5.001 8.424-16.524 8.424z"
    fill="#000000" />
  <path
    d="m99.184 241.471-.013-.024c-19.685 15.549-42.376 26.577-72.884 26.577-7.842 0-13.639-3.742-16.589-8.64l.064.216 60.476 97.475c5.848 9.426 16.153 15.16 27.246 15.16h294.789c4.427 0 8.016-3.589 8.016-8.016 0-8.854-7.178-16.032-16.032-16.032h-171.312c-31.556 0-69.436-22.828-84.178-50.728z"
    fill="#000000" />
  <path
    d="m9.763 259.6 24.928 40.178c59.684-3.177 94.357-39.64 125.045-72.056 29.559-31.227 52.911-55.89 96.264-55.89s66.705 24.663 96.264 55.89c30.688 32.416 65.361 68.879 125.045 72.056l24.928-40.178s-5.001 8.425-16.524 8.425c-104.21 0-117.486-128.258-229.712-128.258s-125.504 128.257-229.713 128.257c-7.842 0-13.639-3.742-16.589-8.64z"
    fill="#000000" />
  <path
    d="m34.691 299.777c33.043-1.759 58.4-13.739 79.678-29.567l-15.185-28.738-.013-.024c-19.685 15.549-42.376 26.577-72.884 26.577-7.842 0-13.639-3.742-16.589-8.64l.064.216z"
    fill="#000000" />
  <path
    d="m252.509 203.691c-21.122 2.014-36.634 20.962-36.634 42.18v14.504c0 4.487 3.638 8.125 8.125 8.125h8.125v8.125c0 4.487 3.638 8.125 8.125 8.125h32.5c4.487 0 8.125-3.638 8.125-8.125v-8.125h8.125c4.487 0 8.125-3.638 8.125-8.125v-16.25c0-23.753-20.386-42.745-44.616-40.434z"
    fill="#000000" />
  <path
    d="m512 251.992c0-4.017-1.178-11.661-9.066-17.72-14.226-10.927-42.47-10.714-86.299.667-12.554-10.033-23.967-22.089-35.639-34.417-31.767-33.557-64.616-68.256-124.996-68.256s-93.229 34.699-124.996 68.255c-11.671 12.329-23.085 24.385-35.639 34.417-43.83-11.381-72.074-11.594-86.299-.667-7.888 6.06-9.066 13.704-9.066 17.721 0 4.382 1.414 8.82 4.062 12.644l59.805 96.392c7.268 11.713 19.835 18.706 33.62 18.706h317.028c13.784 0 26.352-6.993 33.62-18.706l59.805-96.392c2.646-3.824 4.06-8.262 4.06-12.644zm-18.204-5.825c2.648 2.034 3.204 4.29 3.204 5.825 0 3.543-3.502 8.533-11.288 8.533-20.728 0-37.65-5.454-52.548-14.142 42.319-9.363 56.381-3.482 60.632-.216zm-475.592 0c4.635-3.561 12.42-4.885 21.441-4.885 12.374 0 27.072 2.493 39.145 5.127-14.886 8.671-31.798 14.115-52.502 14.115-7.786 0-11.288-4.99-11.288-8.533 0-1.534.556-3.79 3.204-5.824zm417.184 106.953c-4.512 7.272-12.315 11.614-20.874 11.614h-317.028c-8.558 0-16.361-4.342-20.874-11.614l-29.169-47.015c22.737-3.058 43.746-11.158 63.895-24.633 21.107-14.117 37.727-31.672 53.798-48.649 29.439-31.098 50.71-53.566 90.864-53.566 18.37 0 33.987 4.755 49.147 14.964 3.437 2.313 8.097 1.404 10.411-2.032s1.404-8.097-2.032-10.411c-17.751-11.954-36.031-17.521-57.525-17.521-46.609 0-72.166 26.996-101.757 58.254-15.503 16.376-31.535 33.311-51.244 46.493-20.171 13.491-41.251 21.024-64.315 22.985l-10.24-16.504c53.028-.864 83.748-33.273 113.453-64.651 30.947-32.69 60.178-63.567 114.103-63.567s83.155 30.877 114.103 63.567c29.705 31.378 60.425 63.787 113.453 64.651l-10.234 16.496c-23.068-1.961-44.137-9.478-64.32-22.976-19.709-13.182-35.741-30.116-51.256-46.505-7.467-7.887-14.52-15.337-21.68-22.17-2.997-2.86-7.744-2.749-10.604.247-2.86 2.997-2.75 7.744.247 10.604 6.885 6.571 13.811 13.887 21.156 21.645 16.071 16.977 32.69 34.531 53.798 48.649 20.156 13.48 41.146 21.587 63.887 24.647z" />
  <path
    d="m223.936 275.524h.516v.516c0 8.556 6.96 15.516 15.516 15.516h32.064c8.556 0 15.516-6.96 15.516-15.516v-.516h.516c8.556 0 15.516-6.96 15.516-15.516v-16.033c0-13.376-5.679-26.21-15.581-35.213-9.895-8.996-23.256-13.423-36.649-12.145-24.074 2.296-42.931 23.855-42.931 49.081v14.31c0 8.556 6.961 15.516 15.517 15.516zm-.517-29.826c0-17.579 12.894-32.579 29.355-34.148 1.09-.104 2.175-.156 3.251-.156 8.14 0 15.812 2.947 21.883 8.467 6.782 6.167 10.672 14.956 10.672 24.115v16.033c0 .285-.231.516-.516.516h-8.016c-4.142 0-7.5 3.358-7.5 7.5v8.016c0 .285-.231.516-.516.516h-32.064c-.285 0-.516-.231-.516-.516v-8.016c0-4.142-3.358-7.5-7.5-7.5h-8.016c-.285 0-.516-.231-.516-.516z" />
  <path
    d="m240.048 251.476c4.142 0 7.5-3.358 7.5-7.5s-3.358-7.5-7.5-7.5h-.08c-4.142 0-7.46 3.358-7.46 7.5s3.398 7.5 7.54 7.5z" />
  <path
    d="m272.032 251.476c4.142 0 7.5-3.358 7.5-7.5s-3.358-7.5-7.5-7.5h-.08c-4.142 0-7.46 3.358-7.46 7.5s3.398 7.5 7.54 7.5z" />
  <path
    d="m311.02 297.204c-1.593-3.823-5.984-5.632-9.808-4.038l-45.212 18.838-45.212-18.838c-3.824-1.593-8.214.214-9.808 4.038-1.593 3.824.215 8.215 4.038 9.808l31.482 13.117-31.482 13.117c-3.823 1.593-5.631 5.984-4.038 9.808 1.2 2.88 3.988 4.617 6.926 4.617.961 0 1.939-.186 2.882-.579l45.212-18.838 45.212 18.838c.943.393 1.92.579 2.882.579 2.937 0 5.726-1.737 6.926-4.617 1.593-3.824-.215-8.215-4.038-9.808l-31.482-13.117 31.482-13.117c3.823-1.593 5.631-5.984 4.038-9.808z" />
</svg>
