<svg enable-background="new 0 0 511.998 511.998" viewBox="0 0 511.998 511.998"
  xmlns="http://www.w3.org/2000/svg">
  <circle cx="90.33" cy="404.669" fill="#000000" r="83.67" />
  <path
    d="m109.579 453.691c-34.627-5.711-62.552-33.632-68.269-68.258-1.398-8.468-1.52-16.749-.53-24.684 1.171-9.382-11.128-14.444-16.881-6.942-13.42 17.498-20.081 40.45-16.079 64.96 5.67 34.727 33.682 62.74 68.409 68.411 24.511 4.003 47.463-2.659 64.962-16.079 7.502-5.754 2.44-18.052-6.942-16.881-7.931.99-16.207.868-24.67-.527z"
    fill="#000000" />
  <circle cx="421.67" cy="404.669" fill="#000000" r="83.67" />
  <path
    d="m440.913 453.691c-34.627-5.711-62.552-33.632-68.269-68.258-1.398-8.468-1.52-16.749-.53-24.684 1.171-9.382-11.128-14.444-16.881-6.942-13.42 17.498-20.081 40.45-16.079 64.96 5.67 34.727 33.682 62.74 68.409 68.411 24.511 4.003 47.463-2.659 64.962-16.079 7.502-5.754 2.44-18.052-6.942-16.881-7.931.99-16.207.868-24.67-.527z"
    fill="#000000" />
  <circle cx="256" cy="404.669" fill="#000000" r="83.67" />
  <path
    d="m275.246 453.691c-34.627-5.711-62.552-33.632-68.269-68.258-1.398-8.468-1.52-16.749-.53-24.684 1.171-9.382-11.128-14.444-16.881-6.942-13.42 17.498-20.081 40.45-16.079 64.96 5.67 34.727 33.682 62.74 68.409 68.411 24.511 4.003 47.463-2.659 64.962-16.079 7.502-5.754 2.44-18.052-6.942-16.881-7.931.99-16.207.868-24.67-.527z"
    fill="#000000" />
  <circle cx="338.83" cy="255.669" fill="#000000" r="83.67" />
  <path
    d="m358.079 304.691c-34.627-5.711-62.552-33.632-68.269-68.258-1.398-8.468-1.52-16.749-.53-24.684 1.171-9.382-11.128-14.444-16.881-6.942-13.42 17.498-20.081 40.45-16.079 64.96 5.67 34.727 33.682 62.74 68.409 68.411 24.511 4.003 47.463-2.659 64.962-16.079 7.502-5.754 2.44-18.052-6.942-16.881-7.931.99-16.207.868-24.67-.527z"
    fill="#000000" />
  <circle cx="173.17" cy="255.669" fill="#000000" r="83.67" />
  <path
    d="m192.413 304.691c-34.627-5.711-62.552-33.632-68.269-68.258-1.398-8.468-1.52-16.749-.53-24.684 1.171-9.382-11.128-14.444-16.881-6.942-13.42 17.498-20.081 40.45-16.079 64.96 5.67 34.727 33.682 62.74 68.409 68.411 24.511 4.003 47.463-2.659 64.962-16.079 7.502-5.754 2.44-18.052-6.942-16.881-7.931.99-16.207.868-24.67-.527z"
    fill="#000000" />
  <circle cx="256" cy="106.169" fill="#000000" r="83.67" />
  <path
    d="m275.246 155.191c-34.627-5.711-62.552-33.632-68.269-68.258-1.398-8.468-1.52-16.749-.53-24.684 1.171-9.382-11.128-14.444-16.881-6.942-13.42 17.498-20.081 40.45-16.079 64.96 5.67 34.727 33.682 62.74 68.409 68.411 24.511 4.003 47.463-2.659 64.962-16.079 7.502-5.754 2.44-18.052-6.942-16.881-7.931.99-16.207.868-24.67-.527z"
    fill="#000000" />
  <path
    d="m256 49.699c-4.142 0-7.5 3.358-7.5 7.5s3.358 7.5 7.5 7.5c23.269 0 42.2 18.931 42.2 42.2 0 4.142 3.358 7.5 7.5 7.5s7.5-3.358 7.5-7.5c0-31.54-25.659-57.2-57.2-57.2z" />
  <path
    d="m173.167 213.799c23.269 0 42.2 18.931 42.2 42.2 0 4.142 3.358 7.5 7.5 7.5s7.5-3.358 7.5-7.5c0-31.541-25.66-57.2-57.2-57.2-4.142 0-7.5 3.358-7.5 7.5s3.357 7.5 7.5 7.5z" />
  <path
    d="m338.833 198.799c-4.142 0-7.5 3.358-7.5 7.5s3.358 7.5 7.5 7.5c23.269 0 42.2 18.931 42.2 42.2 0 4.142 3.358 7.5 7.5 7.5s7.5-3.358 7.5-7.5c0-31.541-25.659-57.2-57.2-57.2z" />
  <path
    d="m256 347.899c-4.142 0-7.5 3.358-7.5 7.5s3.358 7.5 7.5 7.5c23.269 0 42.2 18.931 42.2 42.2 0 4.142 3.358 7.5 7.5 7.5s7.5-3.358 7.5-7.5c0-31.54-25.659-57.2-57.2-57.2z" />
  <path
    d="m499.908 359.923c-2.075-3.586-6.663-4.809-10.248-2.736-3.585 2.074-4.81 6.662-2.736 10.248 6.592 11.393 10.076 24.417 10.076 37.664 0 41.539-33.794 75.333-75.333 75.333s-75.333-33.794-75.333-75.333 33.794-75.333 75.333-75.333c16.458 0 32.09 5.209 45.206 15.065 3.312 2.487 8.013 1.82 10.501-1.491 2.488-3.312 1.821-8.013-1.491-10.501-15.735-11.823-34.483-18.073-54.217-18.073-5.267 0-10.429.458-15.451 1.327 14.265-15.978 22.951-37.039 22.951-60.094 0-15.881-4.181-31.503-12.092-45.176-2.074-3.586-6.663-4.809-10.248-2.736-3.585 2.074-4.81 6.662-2.736 10.248 6.591 11.393 10.075 24.417 10.075 37.665 0 41.539-33.794 75.333-75.333 75.333s-75.333-33.794-75.333-75.333 33.794-75.333 75.333-75.333c16.458 0 32.089 5.209 45.206 15.065 3.31 2.488 8.013 1.821 10.501-1.491s1.821-8.013-1.491-10.501c-15.735-11.824-34.483-18.073-54.216-18.073-5.267 0-10.429.458-15.451 1.327 14.265-15.978 22.951-37.039 22.951-60.094 0-15.881-4.181-31.502-12.092-45.176-2.075-3.586-6.664-4.809-10.248-2.736-3.585 2.074-4.81 6.662-2.736 10.248 6.591 11.394 10.076 24.417 10.076 37.665 0 41.539-33.794 75.333-75.333 75.333s-75.333-33.794-75.333-75.333 33.794-75.333 75.333-75.333c16.458 0 32.09 5.209 45.206 15.065 3.312 2.488 8.013 1.82 10.501-1.491 2.488-3.312 1.821-8.013-1.491-10.501-15.734-11.826-34.482-18.075-54.215-18.075-49.81 0-90.333 40.523-90.333 90.333 0 23.05 8.682 44.107 22.943 60.084-5.054-.866-10.212-1.318-15.443-1.318-49.81 0-90.333 40.523-90.333 90.333 0 23.05 8.682 44.107 22.942 60.084-5.054-.865-10.212-1.318-15.442-1.318-49.811.002-90.334 40.525-90.334 90.335s40.523 90.333 90.333 90.333c37.013 0 68.893-22.38 82.833-54.315 13.94 31.936 45.82 54.315 82.833 54.315s68.893-22.38 82.833-54.315c13.94 31.936 45.82 54.315 82.833 54.315 49.81 0 90.333-40.523 90.333-90.333.002-15.881-4.179-31.502-12.09-45.176zm-228.465-43.84c-5.054-.866-10.212-1.318-15.443-1.318-5.267 0-10.429.458-15.451 1.327 6.347-7.109 11.588-15.225 15.451-24.076 3.862 8.848 9.099 16.96 15.443 24.067zm-98.276-135.417c16.457 0 32.089 5.209 45.206 15.065 3.312 2.488 8.013 1.82 10.501-1.491.236-.314.435-.644.614-.98 8.387 2.58 17.29 3.972 26.512 3.972 5.267 0 10.429-.458 15.451-1.327-6.344 7.106-11.582 15.216-15.445 24.061-1.359-3.126-2.886-6.183-4.599-9.144-2.075-3.586-6.664-4.809-10.248-2.736-3.585 2.074-4.81 6.662-2.736 10.248 6.593 11.394 10.077 24.418 10.077 37.665 0 41.539-33.794 75.333-75.333 75.333s-75.333-33.794-75.333-75.333 33.794-75.333 75.333-75.333zm-82.834 299.766c-41.539 0-75.333-33.794-75.333-75.333s33.794-75.333 75.333-75.333c16.458 0 32.089 5.209 45.206 15.065 3.311 2.487 8.013 1.821 10.501-1.491.236-.314.435-.644.614-.98 8.387 2.58 17.29 3.972 26.512 3.972 5.267 0 10.429-.458 15.451-1.327-6.344 7.106-11.582 15.216-15.445 24.061-1.359-3.126-2.885-6.183-4.598-9.143-2.075-3.586-6.663-4.809-10.248-2.736-3.585 2.074-4.81 6.662-2.736 10.248 6.591 11.393 10.075 24.417 10.075 37.665.002 41.538-33.793 75.332-75.332 75.332zm165.667 0c-41.539 0-75.333-33.794-75.333-75.333s33.794-75.333 75.333-75.333c16.458 0 32.09 5.209 45.206 15.065 3.312 2.487 8.013 1.82 10.501-1.491.236-.314.434-.644.614-.98 8.387 2.58 17.29 3.972 26.512 3.972 5.267 0 10.429-.458 15.451-1.327-6.344 7.106-11.582 15.216-15.445 24.061-1.359-3.126-2.886-6.183-4.599-9.144-2.075-3.586-6.664-4.809-10.248-2.736-3.585 2.074-4.81 6.662-2.736 10.248 6.591 11.394 10.076 24.417 10.076 37.665.001 41.539-33.793 75.333-75.332 75.333z" />
  <path
    d="m421.667 347.899c-4.142 0-7.5 3.358-7.5 7.5s3.358 7.5 7.5 7.5c23.269 0 42.2 18.931 42.2 42.2 0 4.142 3.358 7.5 7.5 7.5s7.5-3.358 7.5-7.5c0-31.54-25.66-57.2-57.2-57.2z" />
  <path
    d="m90.333 347.899c-4.142 0-7.5 3.358-7.5 7.5s3.358 7.5 7.5 7.5c23.269 0 42.2 18.931 42.2 42.2 0 4.142 3.358 7.5 7.5 7.5s7.5-3.358 7.5-7.5c0-31.54-25.659-57.2-57.2-57.2z" />
</svg>
