<svg enable-background="new 0 0 512 512" viewBox="0 0 512 512" xmlns="http://www.w3.org/2000/svg">
  <path
    d="m296.083 47.581v16.032c0 4.427-3.589 8.016-8.016 8.016 0 0-8.014 0-8.016 0v37.763c0 18.31 8.934 35.469 23.934 45.969l32.293 22.605c15.001 10.5 23.934 27.659 23.934 45.969v248.5c0 17.709-14.356 32.065-32.065 32.065h-144.29c-17.708 0-32.065-14.356-32.065-32.065v-248.5c0-18.31 8.934-35.469 23.934-45.969l32.293-22.605c15.001-10.5 23.934-27.659 23.934-45.969v-37.763h-8.016c-4.427 0-8.016-3.589-8.016-8.016v-16.032c0-4.427 3.589-8.016 8.016-8.016h64.129c4.428 0 8.017 3.588 8.017 8.016z"
    fill="#000000" />
  <path
    d="m247.369 71.629c-3.405 0-6.167-3.589-6.167-8.016v-24.048c-1.233 0-17.265 0-17.265 0-4.427 0-8.016 3.589-8.016 8.016v16.032c0 4.427 3.589 8.016 8.016 8.016h8.016v37.762c0 18.31-8.934 35.469-23.935 45.97l-32.293 22.605c-15 10.501-23.934 27.659-23.934 45.969v248.5c0 17.708 14.355 32.065 32.065 32.065h40.081c-13.622 0-24.665-14.356-24.665-32.065v-248.5c0-18.31 6.871-35.469 18.41-45.969l24.841-22.605c11.539-10.5 11.012-27.659 11.012-45.969v-13.715c0-4.427 3.588-8.016 8.016-8.016h18.498v-16.032z"
    fill="#000000" />
  <path d="m273.432 39.565h-34.86l-8.016-32.065h50.892z" fill="#000000" />
  <path
    d="m312.115 416.323h-112.226c-8.854 0-16.032-7.178-16.032-16.032v-128.259c0-8.854 7.178-16.032 16.032-16.032h112.226c8.854 0 16.032 7.178 16.032 16.032v128.258c0 8.855-7.178 16.033-16.032 16.033z"
    fill="#000000" />
  <path
    d="m340.578 171.822-32.293-22.605c-12.983-9.088-20.735-23.976-20.735-39.825v-30.263h.516c8.556 0 15.516-6.96 15.516-15.516v-16.032c0-8.556-6.96-15.516-15.516-15.516h-6.427l5.686-22.746c.561-2.24.057-4.614-1.364-6.435s-3.601-2.884-5.911-2.884h-48.097c-2.31 0-4.49 1.064-5.912 2.884s-1.925 4.194-1.364 6.435l5.686 22.746h-6.427c-8.556 0-15.516 6.96-15.516 15.516v16.032c0 8.556 6.96 15.516 15.516 15.516h.516v30.263c0 15.849-7.751 30.737-20.735 39.825l-32.293 22.605c-16.99 11.893-27.133 31.375-27.133 52.114v248.5c0 21.815 17.749 39.564 39.564 39.564h144.29c21.816 0 39.564-17.749 39.564-39.564v-248.5c.002-20.739-10.141-40.221-27.131-52.114zm-99.018-156.822h28.885l-4.266 17.064h-20.353zm111.151 457.436c0 13.545-11.02 24.564-24.564 24.564h-144.29c-13.545 0-24.564-11.02-24.564-24.564v-248.5c0-15.849 7.751-30.737 20.735-39.826l32.293-22.604c16.99-11.893 27.133-31.375 27.133-52.114v-30.263h8.534c4.142 0 7.5-3.358 7.5-7.5s-3.358-7.5-7.5-7.5h-24.05c-.285 0-.516-.231-.516-.516v-16.032c0-.285.231-.516.516-.516h64.129c.285 0 .516.231.516.516v16.032c0 .285-.231.516-.516.516h-8.016c-4.142 0-7.5 3.358-7.5 7.5v37.763c0 20.739 10.143 40.221 27.133 52.113l32.293 22.605c12.983 9.089 20.735 23.977 20.735 39.826v248.5z" />
  <path
    d="m312.115 248.5h-112.226c-12.976 0-23.532 10.557-23.532 23.532v128.258c0 12.976 10.557 23.532 23.532 23.532h112.226c12.976 0 23.532-10.557 23.532-23.532v-128.258c0-12.975-10.557-23.532-23.532-23.532zm8.532 151.791c0 4.705-3.828 8.532-8.532 8.532h-112.226c-4.705 0-8.532-3.828-8.532-8.532v-128.259c0-4.705 3.828-8.532 8.532-8.532h112.226c4.705 0 8.532 3.828 8.532 8.532z" />
  <path
    d="m288.002 300.948c-9.895-8.996-23.253-13.419-36.649-12.145-24.074 2.296-42.931 23.855-42.931 49.081v14.31c0 8.556 6.96 15.516 15.516 15.516h.516v.516c0 8.556 6.96 15.516 15.516 15.516h32.064c8.556 0 15.516-6.96 15.516-15.516v-.516h.516c8.556 0 15.516-6.96 15.516-15.516v-16.032c.001-13.377-5.679-26.211-15.58-35.214zm.581 51.245c0 .285-.231.516-.516.516h-8.016c-4.142 0-7.5 3.358-7.5 7.5v8.016c0 .285-.231.516-.516.516h-32.064c-.285 0-.516-.231-.516-.516v-8.016c0-4.142-3.358-7.5-7.5-7.5h-8.016c-.285 0-.516-.231-.516-.516v-14.31c0-17.579 12.894-32.579 29.355-34.148 1.09-.104 2.175-.156 3.251-.156 8.14 0 15.812 2.947 21.883 8.467 6.782 6.167 10.672 14.956 10.672 24.115v16.032z" />
  <path
    d="m240.05 328.661h-.08c-4.142 0-7.46 3.358-7.46 7.5s3.398 7.5 7.54 7.5 7.5-3.358 7.5-7.5-3.358-7.5-7.5-7.5z" />
  <path
    d="m272.034 328.661h-.08c-4.142 0-7.46 3.358-7.46 7.5s3.398 7.5 7.54 7.5 7.5-3.358 7.5-7.5-3.358-7.5-7.5-7.5z" />
  <path
    d="m322.189 198.088-25.217-17.652c-3.393-2.375-8.069-1.55-10.445 1.843-2.375 3.393-1.55 8.07 1.843 10.445l25.216 17.651c4.421 3.096 7.061 8.165 7.061 13.56 0 4.142 3.358 7.5 7.5 7.5s7.5-3.358 7.5-7.5c0-10.284-5.031-19.947-13.458-25.847z" />
  <path
    d="m183.857 440.887c-4.142 0-7.5 3.358-7.5 7.5v24.048c0 4.142 3.358 7.5 7.5 7.5s7.5-3.358 7.5-7.5v-24.048c0-4.142-3.358-7.5-7.5-7.5z" />
  <path
    d="m264.508 172.788c1.482 1.676 3.547 2.532 5.621 2.532 1.766 0 3.539-.62 4.965-1.882 3.103-2.744 3.394-7.484.65-10.586-2.049-2.317-3.986-4.781-5.756-7.322-2.368-3.4-7.043-4.234-10.441-1.867-3.399 2.368-4.234 7.042-1.867 10.441 2.1 3.014 4.398 5.936 6.828 8.684z" />
</svg>
