<svg enable-background="new 0 0 512.005 512.005" viewBox="0 0 512.005 512.005"
  xmlns="http://www.w3.org/2000/svg">
  <path d="m442.466 151.711h-42.466v32h42.466l-8-16z" fill="#000000" />
  <path d="m400 231.71c0 17.673 10.745 32 24 32s24-14.327 24-32z" fill="#000000" />
  <path d="m376 263.71c13.255 0 24-14.327 24-32h-48c0 17.673 10.746 32 24 32z" fill="#000000" />
  <path d="m288 7.712h-55.999v32h55.999l-8-16z" fill="#000000" />
  <path d="m232.003 7.712h24v32h-24z" fill="#000000" />
  <path d="m106.469 151.711h-42.466v32h42.466l-8-16z" fill="#000000" />
  <path
    d="m322.599 354.512-3.965 7.93c-4.065 8.131-12.376 13.267-21.466 13.267h-149.634c-6.887 0-13.001-4.407-15.179-10.94l-8.706-26.119c-2.178-6.533-8.292-10.94-15.179-10.94h-84.467v32c0 13.255 10.745 24 24 24h10.666l14.747 44.239c8.711 26.133 33.168 43.76 60.714 43.76h211.231c23.762 0 45.568-13.165 56.635-34.192l62.003-117.807-124.105 21.901c-7.483 1.32-13.898 6.105-17.295 12.901z"
    fill="#000000" />
  <path d="m256.001 103.711h-48l-8-32h63.999z" fill="#000000" />
  <g fill="#000000">
    <path d="m208.001 231.71c13.255 0 24-14.327 24-32h-48c0 17.673 10.746 32 24 32z" />
    <path d="m160.001 231.71c13.255 0 24-14.327 24-32h-48c0 17.673 10.746 32 24 32z" />
    <path d="m280 199.71c0 17.673 10.745 32 24 32s24-14.327 24-32z" />
    <path d="m256.001 231.71c13.255 0 24-14.327 24-32h-48c0 17.673 10.744 32 24 32z" />
    <path d="m232.001 135.711c0 17.673 10.745 32 24 32s24-14.327 24-32z" />
    <path d="m208.001 167.711c13.255 0 24-14.327 24-32h-48c0 17.673 10.746 32 24 32z" />
    <path d="m64.003 231.71c0 17.673 10.745 32 24 32s24-14.327 24-32z" />
    <path d="m40.003 263.71c13.255 0 24-14.327 24-32h-48c0 17.673 10.745 32 24 32z" />
  </g>
  <path d="m296 391.709c0-4.418-3.582-8-8-8h-229.331l5.333 16h223.998c4.418 0 8-3.582 8-8z"
    fill="#000000" />
  <path d="m123.649 338.65c-2.178-6.534-8.292-10.94-15.179-10.94h-84.467v24h103.999z" fill="#000000" />
  <path
    d="m229.365 97.651-5.242-20.97c-.631-2.525 1.278-4.97 3.88-4.97h-28.002l8 32h29.125c-3.672 0-6.87-2.498-7.761-6.06z"
    fill="#000000" />
  <path
    d="m463.999 479.941c-.487.012-.853.061-1.383.061-7.359 0-10.375-1.164-14.93-2.922-5.844-2.262-13.125-5.078-26.461-5.078-13.328 0-20.609 2.816-26.453 5.078-4.547 1.758-7.555 2.922-14.898 2.922s-10.344-1.16-14.891-2.922c-5.844-2.262-13.117-5.078-26.437-5.078s-20.601 2.816-26.445 5.078c-4.547 1.758-7.547 2.922-14.898 2.922-7.344 0-10.344-1.16-14.891-2.922-5.844-2.262-13.117-5.078-26.437-5.078-13.328 0-20.601 2.816-26.445 5.078-4.547 1.762-7.547 2.922-14.891 2.922s-10.344-1.16-14.891-2.922c-5.844-2.262-13.117-5.078-26.437-5.078s-20.594 2.816-26.445 5.082c-4.539 1.758-7.539 2.918-14.875 2.918-7.328 0-10.32-1.16-14.859-2.918-5.844-2.266-13.109-5.082-26.43-5.082s-20.594 2.816-26.445 5.082c-4.539 1.758-7.539 2.918-14.875 2.918-.492 0-.827-.046-1.281-.056v8.124c0 14.215 14.273 24.054 27.529 18.924.061-.023.121-.047.181-.07 4.547-1.762 7.547-2.922 14.891-2.922 7.336 0 10.328 1.16 14.867 2.918 5.844 2.266 13.109 5.082 26.422 5.082 13.32 0 20.586-2.816 26.43-5.078 4.547-1.762 7.547-2.922 14.891-2.922s10.344 1.16 14.891 2.922c5.844 2.262 13.117 5.078 26.437 5.078s20.594-2.816 26.437-5.078c4.547-1.758 7.547-2.922 14.898-2.922 7.344 0 10.344 1.16 14.891 2.922 5.844 2.262 13.117 5.078 26.437 5.078s20.601-2.816 26.445-5.078c4.547-1.758 7.547-2.922 14.898-2.922 7.344 0 10.344 1.16 14.891 2.922 5.844 2.262 13.117 5.078 26.437 5.078s20.601-2.816 26.445-5.078c4.547-1.758 7.555-2.922 14.906-2.922 7.359 0 10.375 1.164 14.93 2.922.104.04.208.081.313.121 13.257 5.127 27.531-4.711 27.531-18.924z"
    fill="#000000" />
  <path
    d="m462.616 488.002c-13.336 0-20.617-2.816-26.461-5.078-4.555-1.758-7.57-2.922-14.93-2.922-7.352 0-10.359 1.164-14.906 2.922-5.844 2.262-13.125 5.078-26.445 5.078s-20.594-2.816-26.437-5.078c-4.547-1.762-7.547-2.922-14.891-2.922-7.352 0-10.351 1.164-14.898 2.922-5.844 2.262-13.125 5.078-26.445 5.078s-20.594-2.816-26.437-5.078c-4.547-1.762-7.547-2.922-14.891-2.922-7.352 0-10.351 1.164-14.898 2.922-5.844 2.262-13.117 5.078-26.437 5.078s-20.594-2.816-26.437-5.078c-4.547-1.762-7.547-2.922-14.891-2.922s-10.344 1.16-14.891 2.922c-5.844 2.262-13.109 5.078-26.43 5.078-13.312 0-20.578-2.816-26.422-5.082-4.539-1.758-7.531-2.918-14.867-2.918-7.344 0-10.344 1.16-14.891 2.922-5.844 2.262-13.109 5.078-26.43 5.078-13.312 0-20.586-2.816-26.422-5.082-3.172-1.227-5.453-2.113-8.953-2.574-8.766-1.156-14.922-9.199-13.766-17.957 1.156-8.766 9.258-14.922 17.953-13.769 7.305.965 12.305 2.906 16.328 4.465 4.531 1.758 7.531 2.918 14.859 2.918 7.336 0 10.336-1.16 14.875-2.918 5.852-2.266 13.125-5.082 26.445-5.082s20.586 2.816 26.43 5.082c4.539 1.758 7.531 2.918 14.859 2.918 7.336 0 10.336-1.16 14.875-2.918 5.852-2.266 13.125-5.082 26.445-5.082s20.594 2.816 26.437 5.078c4.547 1.762 7.547 2.922 14.891 2.922s10.344-1.16 14.891-2.922c5.844-2.262 13.117-5.078 26.445-5.078 13.32 0 20.594 2.816 26.437 5.078 4.547 1.762 7.547 2.922 14.891 2.922 7.352 0 10.351-1.164 14.898-2.922 5.844-2.262 13.125-5.078 26.445-5.078s20.594 2.816 26.437 5.078c4.547 1.762 7.547 2.922 14.891 2.922s10.351-1.164 14.898-2.922c5.844-2.262 13.125-5.078 26.453-5.078 13.336 0 20.617 2.816 26.461 5.078 4.555 1.758 7.57 2.922 14.93 2.922 7.359 0 10.367-1.164 14.922-2.922 4.031-1.563 9.055-3.504 16.383-4.461 8.656-1.164 16.797 5.02 17.945 13.785 1.148 8.762-5.023 16.793-13.789 17.941-3.523.461-5.82 1.352-9 2.582-5.851 2.261-13.131 5.074-26.459 5.074z"
    fill="#000000" />
  <path
    d="m159.889 400.808h-.08c-4.142 0-7.46 3.357-7.46 7.5 0 4.142 3.398 7.5 7.54 7.5s7.5-3.358 7.5-7.5-3.357-7.5-7.5-7.5z" />
  <path
    d="m224.019 400.808h-.08c-4.142 0-7.46 3.357-7.46 7.5 0 4.142 3.398 7.5 7.54 7.5s7.5-3.358 7.5-7.5-3.358-7.5-7.5-7.5z" />
  <path
    d="m288.147 400.808h-.08c-4.142 0-7.46 3.357-7.46 7.5 0 4.142 3.398 7.5 7.54 7.5s7.5-3.358 7.5-7.5-3.358-7.5-7.5-7.5z" />
  <path
    d="m191.874 400.808h-.08c-4.142 0-7.46 3.357-7.46 7.5 0 4.142 3.398 7.5 7.54 7.5s7.5-3.358 7.5-7.5-3.358-7.5-7.5-7.5z" />
  <path
    d="m256.082 400.808h-.08c-4.142 0-7.46 3.357-7.46 7.5 0 4.142 3.398 7.5 7.54 7.5s7.5-3.358 7.5-7.5-3.358-7.5-7.5-7.5z" />
  <path
    d="m127.745 207.389h1.093c2.803 18.241 15.621 32.064 30.972 32.064 9.628 0 18.257-5.443 24.048-13.997 5.792 8.554 14.42 13.997 24.048 13.997s18.257-5.443 24.048-13.997c5.792 8.554 14.42 13.997 24.048 13.997s18.257-5.443 24.048-13.997c5.792 8.554 14.42 13.997 24.048 13.997 15.351 0 28.169-13.824 30.972-32.064h1.092c4.142 0 7.5-3.358 7.5-7.5s-3.358-7.5-7.5-7.5h-96.709v-22.963c4.814 3.735 10.483 5.898 16.548 5.898 15.351 0 28.169-13.824 30.972-32.064h1.092c4.142 0 7.5-3.357 7.5-7.5 0-4.142-3.358-7.5-7.5-7.5h-48.613v-17.064h16.551c3.441 0 6.441-2.342 7.276-5.681l8.016-32.064c.561-2.241.057-4.614-1.364-6.435s-3.602-2.885-5.912-2.885h-24.564v-17.065h48.613c2.599 0 5.013-1.346 6.38-3.557s1.491-4.972.328-7.297l-6.339-12.678 6.339-12.678c1.163-2.325 1.039-5.086-.328-7.297s-3.781-3.557-6.38-3.557h-56.113c-4.142 0-7.5 3.358-7.5 7.5v56.629h-24.564c-2.31 0-4.49 1.064-5.912 2.885s-1.925 4.194-1.364 6.435l8.016 32.064c.834 3.339 3.834 5.681 7.276 5.681h16.548v17.064h-48.613c-4.142 0-7.5 3.358-7.5 7.5 0 4.143 3.358 7.5 7.5 7.5h1.092c2.803 18.241 15.621 32.064 30.972 32.064 6.065 0 11.734-2.163 16.548-5.898v22.963h-96.71c-4.142 0-7.5 3.358-7.5 7.5s3.359 7.5 7.501 7.5zm145.597-180.501 2.589 5.178h-36.478v-17.064h36.478l-2.589 5.178c-1.056 2.111-1.056 4.597 0 6.708zm-63.847 52.243h44.917l-4.266 17.064h-36.385zm-49.685 145.322c-7.217 0-13.529-7.284-15.722-17.064h31.445c-2.194 9.781-8.506 17.064-15.723 17.064zm48.096 0c-7.217 0-13.529-7.284-15.722-17.064h31.445c-2.193 9.781-8.507 17.064-15.723 17.064zm48.097 0c-7.217 0-13.529-7.284-15.722-17.064h31.445c-2.195 9.781-8.506 17.064-15.723 17.064zm48.096 0c-7.217 0-13.529-7.284-15.722-17.064h31.445c-2.193 9.781-8.506 17.064-15.723 17.064zm-48.096-64.129c-7.217 0-13.529-7.283-15.722-17.064h31.445c-2.195 9.781-8.506 17.064-15.723 17.064zm-48.097 0c-7.217 0-13.529-7.283-15.722-17.064h31.445c-2.193 9.781-8.507 17.064-15.723 17.064z" />
  <path
    d="m7.503 239.453h1.092c2.803 18.241 15.621 32.064 30.972 32.064 9.628 0 18.257-5.443 24.048-13.997 5.792 8.554 14.42 13.997 24.048 13.997 15.351 0 28.169-13.824 30.972-32.064h1.092c4.142 0 7.5-3.358 7.5-7.5s-3.358-7.5-7.5-7.5h-48.611v-33.097h32.581c2.599 0 5.013-1.346 6.38-3.557s1.491-4.973.328-7.297l-6.339-12.679 6.339-12.678c1.163-2.325 1.039-5.086-.328-7.297s-3.781-3.558-6.38-3.558h-40.081c-4.142 0-7.5 3.358-7.5 7.5v72.662h-48.613c-4.142 0-7.5 3.358-7.5 7.5s3.358 7.501 7.5 7.501zm32.064 17.065c-7.217 0-13.529-7.284-15.722-17.064h31.445c-2.193 9.78-8.506 17.064-15.723 17.064zm48.097 0c-7.217 0-13.529-7.284-15.722-17.064h31.445c-2.194 9.78-8.506 17.064-15.723 17.064zm1.308-85.34 2.589 5.178h-20.445v-17.064h20.445l-2.589 5.179c-1.056 2.111-1.056 4.596 0 6.707z" />
  <path
    d="m336.68 231.953c0 4.142 3.358 7.5 7.5 7.5h1.092c2.803 18.241 15.621 32.064 30.972 32.064 9.628 0 18.257-5.443 24.049-13.997 5.791 8.554 14.42 13.997 24.048 13.997 15.351 0 28.169-13.824 30.972-32.064h1.092c4.142 0 7.5-3.358 7.5-7.5s-3.358-7.5-7.5-7.5h-48.613v-33.097h32.581c2.599 0 5.013-1.346 6.38-3.557s1.491-4.973.328-7.297l-6.339-12.679 6.339-12.678c1.163-2.325 1.039-5.086-.328-7.297s-3.781-3.558-6.38-3.558h-40.081c-4.142 0-7.5 3.358-7.5 7.5v72.662h-48.613c-4.141.001-7.499 3.359-7.499 7.501zm39.565 24.565c-7.217 0-13.529-7.284-15.722-17.064h31.445c-2.195 9.78-8.506 17.064-15.723 17.064zm48.096 0c-7.217 0-13.529-7.284-15.722-17.064h31.445c-2.193 9.78-8.505 17.064-15.723 17.064zm1.309-85.34 2.589 5.178h-20.445v-17.064h20.445l-2.589 5.179c-1.056 2.111-1.056 4.596 0 6.707z" />
  <path
    d="m504.503 442.253c-11.767 0-17.968 2.397-23.439 4.513-4.862 1.88-9.062 3.503-18.03 3.503s-13.167-1.624-18.03-3.503c-5.471-2.115-11.673-4.513-23.439-4.513-3.968 0-7.291.277-10.178.72l58.468-116.935 35.991-6.543c4.075-.741 6.778-4.646 6.037-8.721-.741-4.076-4.64-6.777-8.721-6.038l-95.368 17.34v-34.009c0-4.142-3.358-7.5-7.5-7.5s-7.5 3.358-7.5 7.5v36.736l-54.157 9.847c-9.718 1.767-18.157 8.096-22.574 16.931l-4.008 8.016c-2.822 5.643-8.493 9.148-14.802 9.148h-57.798v-112.743c0-4.142-3.358-7.5-7.5-7.5s-7.5 3.358-7.5 7.5v112.742h-71.36c-7.134 0-13.443-4.548-15.699-11.315l-5.07-15.21c-4.301-12.902-16.329-21.571-29.93-21.571h-31.28v-32.581c0-4.142-3.358-7.5-7.5-7.5s-7.5 3.358-7.5 7.5v32.581h-48.613c-4.142 0-7.5 3.357-7.5 7.5 0 4.142 3.358 7.5 7.5 7.5h8.532v24.564c0 12.976 10.557 23.532 23.532 23.532h10.493l16.507 53.646c.871 2.832 1.917 5.605 3.128 8.302-.98.358-1.92.72-2.836 1.075-4.853 1.879-9.043 3.502-17.993 3.502-8.938 0-13.124-1.623-17.971-3.501-5.46-2.116-11.648-4.515-23.392-4.515-4.142 0-7.5 3.357-7.5 7.5 0 4.142 3.358 7.5 7.5 7.5 8.938 0 13.124 1.623 17.971 3.501 5.46 2.116 11.648 4.515 23.392 4.515 11.752 0 17.945-2.398 23.41-4.514 4.853-1.879 9.043-3.502 17.993-3.502 8.942 0 13.13 1.623 17.979 3.501 5.461 2.116 11.651 4.515 23.398 4.515 11.751 0 17.944-2.398 23.408-4.514 4.852-1.879 9.042-3.502 17.99-3.502 8.953 0 13.146 1.623 18 3.502 5.466 2.116 11.661 4.514 23.416 4.514s17.95-2.398 23.415-4.514c4.854-1.879 9.047-3.502 18-3.502s13.146 1.623 18 3.502c5.466 2.116 11.661 4.514 23.416 4.514 11.757 0 17.954-2.398 23.42-4.514 4.856-1.879 9.05-3.502 18.007-3.502 8.95 0 13.141 1.623 17.994 3.502 5.464 2.116 11.658 4.514 23.411 4.514 11.76 0 17.958-2.398 23.426-4.513 4.858-1.879 9.054-3.503 18.014-3.503 8.968 0 13.168 1.624 18.03 3.503 5.471 2.115 11.672 4.513 23.439 4.513s17.968-2.397 23.439-4.513c4.862-1.88 9.062-3.503 18.03-3.503 4.142 0 7.5-3.358 7.5-7.5.002-4.143-3.356-7.5-7.498-7.5zm-142.374 4.513c-5.464-2.116-11.658-4.514-23.41-4.514-11.758 0-17.954 2.397-23.421 4.514-4.856 1.879-9.05 3.502-18.006 3.502-8.953 0-13.146-1.623-18.001-3.502-5.466-2.116-11.661-4.514-23.416-4.514s-17.95 2.397-23.416 4.514c-4.854 1.879-9.047 3.502-18 3.502s-13.146-1.623-18-3.502c-5.466-2.116-11.661-4.514-23.416-4.514-11.751 0-17.943 2.398-23.407 4.514-4.852 1.879-9.042 3.502-17.991 3.502-8.942 0-13.13-1.623-17.979-3.501-5.462-2.116-11.652-4.515-23.399-4.515-1.981 0-3.792.073-5.48.196-1.572-3.027-2.878-6.198-3.885-9.471l-15.149-49.234h37.942c4.142 0 7.5-3.358 7.5-7.5 0-4.143-3.358-7.5-7.5-7.5h-64.128c-4.705 0-8.532-3.828-8.532-8.532v-24.564h71.36c7.134 0 13.443 4.547 15.699 11.315l5.07 15.209c4.301 12.903 16.329 21.572 29.93 21.572h144.159c12.027 0 22.839-6.683 28.218-17.44l4.007-8.016c2.317-4.634 6.744-7.954 11.842-8.881l110.087-20.016-56.129 112.258c-1.317 2.633-2.854 5.164-4.563 7.561-2.786.647-6.086 1.058-10.591 1.058-8.951.001-13.141-1.621-17.995-3.501z" />
  <path
    d="m421.565 474.317c-11.76 0-17.958 2.398-23.426 4.513-4.858 1.88-9.054 3.503-18.014 3.503-8.95 0-13.142-1.623-17.995-3.502-5.464-2.116-11.658-4.514-23.41-4.514-11.758 0-17.954 2.398-23.421 4.514-4.856 1.879-9.05 3.502-18.006 3.502-8.954 0-13.146-1.623-18.001-3.502-5.466-2.116-11.661-4.514-23.416-4.514s-17.95 2.398-23.416 4.514c-4.854 1.879-9.047 3.502-18 3.502s-13.146-1.623-18-3.502c-5.466-2.116-11.661-4.514-23.416-4.514-11.751 0-17.943 2.398-23.407 4.514-4.852 1.879-9.042 3.502-17.991 3.502-8.942 0-13.13-1.623-17.979-3.501-5.461-2.116-11.652-4.515-23.398-4.515-4.142 0-7.5 3.358-7.5 7.5s3.358 7.5 7.5 7.5c8.942 0 13.13 1.623 17.979 3.501 5.461 2.116 11.651 4.515 23.398 4.515 11.751 0 17.944-2.398 23.408-4.514 4.852-1.879 9.042-3.502 17.99-3.502 8.953 0 13.146 1.623 18 3.502 5.466 2.116 11.661 4.514 23.416 4.514s17.95-2.398 23.415-4.514c4.855-1.879 9.047-3.502 18-3.502s13.146 1.623 18 3.502c5.466 2.116 11.661 4.514 23.416 4.514 11.757 0 17.954-2.398 23.42-4.513 4.856-1.88 9.05-3.503 18.007-3.503 8.95 0 13.141 1.623 17.994 3.502 5.464 2.116 11.658 4.514 23.411 4.514 11.76 0 17.958-2.398 23.426-4.513 4.858-1.88 9.054-3.503 18.014-3.503 4.142 0 7.5-3.358 7.5-7.5s-3.356-7.5-7.498-7.5z" />
</svg>
