{
  "title": "Road To Rome",
  "description": "Road To Rome is the multiplayer-focused expansion of Battlefield 1942 that contains everything you wanted to have more of. Take a chance and visit some of the better-known battle fields in mainland Italy and Sicily.",
  "categories": ["Battlefield 1942"],
  "origin": "https://web.archive.org/web/20030820085525/http://global.dice.se/games/roadtorome/"
}
