{
  "eagles_nest": {
    "created": "2003-09-04",
    "creator": "DICE, EA",
    "title": "Eagle's Nest",
    "origin": "https://academickids.com/encyclopedia/index.php/Battlefield_1942"
  },
  "essen": {
    "created": "2003-09-04",
    "creator": "DICE, EA",
    "origin": "https://academickids.com/encyclopedia/index.php/Battlefield_1942"
  },
  "gothic_line": {
    "created": "2003-09-04",
    "creator": "DICE, EA",
    "origin": "https://academickids.com/encyclopedia/index.php/Battlefield_1942"
  },
  "hellendoorn": {
    "created": "2003-09-04",
    "creator": "DICE, EA",
    "origin": "https://academickids.com/encyclopedia/index.php/Battlefield_1942"
  },
  "kbely_airfield": {
    "created": "2003-09-04",
    "creator": "DICE, EA",
    "origin": "https://academickids.com/encyclopedia/index.php/Battlefield_1942"
  },
  "mimoyecques": {
    "created": "2003-09-04",
    "creator": "DICE, EA",
    "origin": "https://academickids.com/encyclopedia/index.php/Battlefield_1942"
  },
  "peenemunde": {
    "created": "2003-09-04",
    "creator": "DICE, EA",
    "origin": "https://academickids.com/encyclopedia/index.php/Battlefield_1942"
  },
  "raid_on_agheila": {
    "created": "2003-09-04",
    "creator": "DICE, EA",
    "origin": "https://academickids.com/encyclopedia/index.php/Battlefield_1942"
  },
  "telemark": {
    "created": "2003-09-04",
    "creator": "DICE, EA",
    "title": "Telemark Research Base",
    "origin": "https://academickids.com/encyclopedia/index.php/Battlefield_1942"
  }
}
