{
  "circarpous_iv_raid": {
    "created": "2004-09-13",
    "creator": "Dnamro",
    "title": "Circarpous IV Raid",
    "origin": "https://web.archive.org/save/https://www.lonebullet.com/file/mods/gcx-update-v42c/39587"
  },
  "endoria": {
    "created": "2003-08-13",
    "creator": "Dnamro",
    "origin": "https://www.gamefront.com/games/battlefield-1942/file/gcx-endoria"
  },
  "endoth": {
    "created": "2004-11-26",
    "creator": "Dnamro",
    "origin": "https://www.gamefront.com/games/battlefield-1942/file/gcx-endoth"
  },
  "frozen-planet": {
    "created": "2004-03-27",
    "creator": "Dnamro",
    "origin": "https://www.gamefront.com/games/battlefield-1942/file/gcx-frozen-planet"
  },
  "plains-of-sakyia": {
    "created": "2005-07-17",
    "creator": "Dnamro",
    "origin": "https://www.gamefront.com/games/battlefield-1942/file/gcx-sakiya-plains"
  },
  "planet-bazaria": {
    "created": "2003-12-18",
    "creator": "Dnamro",
    "origin": "https://www.gamefront.com/games/battlefield-1942/file/gcx-planet-bizzaria"
  },
  "the-swamp": {
    "created": "2004-03-21",
    "creator": "Dnamro",
    "origin": "https://web.archive.org/web/20240109160047/https://www.softpaz.com/games/download-battlefield-1942-galactic-conquest-extended-mod-game-13771.htm"
  },
  "two-moons": {
    "created": "2003-08-25",
    "creator": "Dnamro",
    "origin": "https://www.gamefront.com/games/battlefield-1942/file/gcx-two-moons"
  }
}
