{
  "hoth": {
    "created": "2003-03-23",
    "creator": "Liam, Szier, GC Team",
    "description": "After the falling of the first death star, the Rebel Alliance stationed their forces on an ice planet surrounded by an asteroid belt. Hoth is both flat and mountainous with a network of caves covered by thick snow, very often do asteroids pelt the surface creating craters, before covering over with snow from the harsh snowstorms, making it an ideal base of operations. With the Empire despatching several thousand probe droids, they eventually found signs of the Rebel Alliance inhabiting a mountain base on the planet Hoth. Once found the Empire launched a full scale ground invasion triggering the Battle of Hoth.\n\n**Terrain**: Mountainous & Large snowy plains\n\n**Inhabitants**: Taun Tauns and Wampa's\n\n**Occupants**: Rebel Alliance",
    "labels": ["Release 1"],
    "origin": "https://web.archive.org/web/20030829074346/http://www.galactic-conquest.net/index.php?page=&action=show&id=2189"
  },
  "imperial-assult": {
    "created": "2004-09-29",
    "creator": "GC Team",
    "labels": ["Release 1.0", "Unreleased"]
  },
  "tatooine": {
    "created": "2003-03-23",
    "creator": "Lord_Dill, Django, HC, Szier, Luuri, GC Team",
    "description": "Based on the outter rim of the Galaxy, Tatooine is a very hot and sandy planet. Very large open plains are split with huge canyons, usually the hunting grounds of many Tusken Raiders. Tatooine is controlled by the Hutts, which brings many smugglers, bounty hunters and thieves to the few spaceports situated on the planet.\n\n**Terrain**: Flat desert plains, Dune seas and Huge canyons\n\n**Inhabitants**: Tusken raiders, Dewbacks, The Hutts, Humans and Jawa's\n\n**Occupants**: Neutral",
    "labels": ["Release 2"],
    "origin": "https://web.archive.org/web/20030829074346/http://www.galactic-conquest.net/index.php?page=&action=show&id=2189"
  },
  "endor": {
    "created": "2003-03-23",
    "creator": "GoosemanXP, Django, JayBiggs, GC Team",
    "description": "Endor is a planet covered in jungled forests lightly broken with mountainous areas, lakes and rivers. Endor was the location of the Deathstar Mk II's shield generator that protected the Deathstar while it was still being constructed, knocked out by the Rebel Alliance in order to start the fall of the Empire. Endors tall treeline is enough to give any man vertigo and its overgrown vegetation leave very little large open areas. Endor is home to the ewoks, cute little bear like creatures who use ancient methods of hunting with spears and bow and arrow\n\n**Terrain**: Large dense forests, rough terrain, shallow lakes/rivers and mountains.\n\n**Inhabitants**: Ewoks\n\n**Occupants**: Imperial forces",
    "labels": ["Release 2"],
    "origin": "https://web.archive.org/web/20030829074346/http://www.galactic-conquest.net/index.php?page=&action=show&id=2189"
  },
  "bcanyon": {
    "created": "2003-03-23",
    "creator": "Szier, GC Team",
    "title": "Beggars Canyon",
    "labels": ["Release 2"],
    "origin": "https://www.shacknews.com/article/30970/new-galactic-conquest"
  },
  "bespin": {
    "created": "2003-03-23",
    "creator": "Szier, Luuri, GC Team",
    "labels": ["Release 2"],
    "origin": "https://www.shacknews.com/article/30970/new-galactic-conquest"
  },
  "deathstar": {
    "created": "2003-03-23",
    "creator": "Szier, Suge, GC Team",
    "labels": ["Release 2"],
    "origin": "https://www.shacknews.com/article/30970/new-galactic-conquest"
  },
  "judicator": {
    "created": "2003-03-23",
    "creator": "Szier, Suge, GC Team",
    "labels": ["Release 2"],
    "origin": "https://www.shacknews.com/article/30970/new-galactic-conquest"
  },
  "tanaab": {
    "created": "2003-03-23",
    "creator": "Szier, GC Team",
    "labels": ["Release 2"],
    "origin": "https://www.shacknews.com/article/30970/new-galactic-conquest"
  },
  "taskforce": {
    "created": "2003-03-23",
    "creator": "Szier, GC Team",
    "labels": ["Release 2"],
    "origin": "https://www.shacknews.com/article/30970/new-galactic-conquest"
  },
  "moncal": {
    "created": "2004-04-20",
    "creator": "Szier, Luuri, GC Team",
    "title": "Mon Calamari",
    "labels": ["Release 3"],
    "origin": "https://www.shacknews.com/article/31537/new-galactic-conquest"
  },
  "anchorhead": {
    "created": "2004-09-11",
    "creator": "GC Team",
    "labels": ["Release 4"],
    "origin": "https://www.boards.ie/discussion/186606/mod-release-galactic-conquest-0-4"
  },
  "dantooine": {
    "created": "2004-09-11",
    "creator": "Szier, Luuri, GC Team",
    "labels": ["Release 4"],
    "origin": "https://www.boards.ie/discussion/186606/mod-release-galactic-conquest-0-4"
  },
  "lok": {
    "created": "2004-09-11",
    "creator": "GC Team",
    "labels": ["Release 4"],
    "origin": "https://www.boards.ie/discussion/186606/mod-release-galactic-conquest-0-4"
  },
  "flood-plains": {
    "created": "2021-10-29",
    "creator": "GC Team",
    "labels": ["Release 4.2", "Unreleased"]
  },
  "bonusrace": {
    "created": "2005-04-02",
    "creator": "GC Team",
    "title": "Bonus Race",
    "labels": ["Release 5"],
    "origin": "http://www.bf-games.net/downloads/299/galactic-conquest-client-v05-full-installer.html"
  },
  "corellia": {
    "created": "2005-04-02",
    "creator": "GC Team",
    "labels": ["Release 5"],
    "origin": "http://www.bf-games.net/downloads/299/galactic-conquest-client-v05-full-installer.html"
  },
  "kryos": {
    "created": "2005-04-02",
    "creator": "GC Team",
    "labels": ["Release 5"],
    "origin": "http://www.bf-games.net/downloads/299/galactic-conquest-client-v05-full-installer.html"
  },
  "mos-eisley": {
    "created": "2005-04-02",
    "creator": "GC Team",
    "labels": ["Release 5"],
    "origin": "http://www.bf-games.net/downloads/299/galactic-conquest-client-v05-full-installer.html"
  },
  "vanguard": {
    "created": "2005-04-02",
    "creator": "Szier, GC Team",
    "labels": ["Release 5"],
    "origin": "http://www.bf-games.net/downloads/299/galactic-conquest-client-v05-full-installer.html"
  },
  "judicator-push": {
    "created": "2005-05-22",
    "creator": "GC Team",
    "labels": ["Release 5.3"],
    "origin": "https://www.bf-games.net/forum/topic/19126-galactic-conquest-53/"
  },
  "redemption": {
    "created": "2007-02-11",
    "creator": "GC Team",
    "labels": ["Release 5.3", "Unreleased"]
  },
  "mini-cove": {
    "created": "2005-05-22",
    "creator": "GC Team",
    "labels": ["Release 5.3"],
    "origin": "https://www.bf-games.net/forum/topic/19126-galactic-conquest-53/"
  },
  "mini-wasteland": {
    "created": "2005-05-22",
    "creator": "GC Team",
    "labels": ["Release 5.3"],
    "origin": "https://www.bf-games.net/forum/topic/19126-galactic-conquest-53/"
  },
  "sakiya": {
    "created": "2014-02-15",
    "creator": "GC Team",
    "labels": ["Release 8.0", "Unreleased"]
  },
  "mini-hoth": {
    "created": "2015-01-11",
    "creator": "Kurosaji/Loderunner, GC Team",
    "labels": ["Release 8.1"],
    "origin": "https://www.gametracker.com/games/bf1942/forum.php?post=381209"
  },
  "bespin-night": {
    "created": "2021-12-01",
    "creator": "Henk, GC Team",
    "labels": ["Release 8.4"],
    "origin": "https://www.moddb.com/mods/battlefield-galactic-conquest/downloads/galactic-conquest-84"
  }
}
