[
  {
    "title": "Release 1-3",
    "name": "Release 1-3",
    "description": "Battlefield: Galactic Conquest is a Star Wars themed team play mod for the popular multiplayer game Battlefield 1942 by Electronic Arts and Dice. We are a non profitable project which is aimed at the huge fanbase the Star Wars name has created for it.\n\nBattlefield: Galactic Conquest will put you in the role of an every day soldier in the Star Wars universe. You will be able to choose between the Galactic Civil war and The Clone Wars and fight by either means of Land or Air in many of the Vehicles you can see throughout the Star Wars universe",
    "categories": ["Galactic Conquest"],
    "origin": "https://web.archive.org/web/20030805093326/http://www.galactic-conquest.net/index.php?page=&action=show&id=2182"
  },
  {
    "title": "Release 4",
    "name": "Release 4",
    "description": "Battlefield: Galactic Conquest is a Star Wars themed team play mod for the popular multiplayer game Battlefield 1942 by Electronic Arts and Dice. We are a non profitable project which is aimed at the huge fanbase the Star Wars name has created for it.\n\nBattlefield: Galactic Conquest will put you in the role of an every day soldier in the Star Wars universe. You will be able to choose between the Galactic Civil war and The Clone Wars and fight by either means of Land or Air in many of the Vehicles you can see throughout the Star Wars universe",
    "categories": ["Galactic Conquest"],
    "origin": "https://web.archive.org/web/20231228000947/https://www.boards.ie/discussion/186606/mod-release-galactic-conquest-0-4"
  },
  {
    "title": "Release 5",
    "name": "Release 5",
    "description": "Battlefield: Galactic Conquest is a Star Wars themed team play mod for the popular multiplayer game Battlefield 1942 by Electronic Arts and Dice. We are a non profitable project which is aimed at the huge fanbase the Star Wars name has created for it.\n\nBattlefield: Galactic Conquest will put you in the role of an every day soldier in the Star Wars universe. You will be able to choose between the Galactic Civil war and The Clone Wars and fight by either means of Land or Air in many of the Vehicles you can see throughout the Star Wars universe",
    "categories": ["Galactic Conquest"],
    "origin": "https://web.archive.org/web/20231228001453/https://www.bf-games.net/downloads/299/galactic-conquest-client-v05-full-installer.html"
  },
  {
    "title": "Release 6-8",
    "name": "Release 6-8",
    "description": "Battlefield: Galactic Conquest is a Star Wars themed team play mod for the popular multiplayer game Battlefield 1942 by Electronic Arts and Dice. We are a non profitable project which is aimed at the huge fanbase the Star Wars name has created for it.\n\nBattlefield: Galactic Conquest will put you in the role of an every day soldier in the Star Wars universe. You will be able to choose between the Galactic Civil war and The Clone Wars and fight by either means of Land or Air in many of the Vehicles you can see throughout the Star Wars universe",
    "categories": ["Galactic Conquest"],
    "origin": "http://galacticconquest.rf.gd/GC-1/"
  }
]
