{
  "title": "Desert Combat Original",
  "description": "Desert Combat is a modern day military modification to the popular war game BattleField1942 from EA. It is focused on conflicts in the middle-east within the last decade between the various nations, From Desert Storm to Somalia. Currently, only the Desert Storm campaign - featuring Coalition and Iraqi forces - is available. This war game is a total conversion for Battlefield1942 and is based on the same principles of a FPS and arcade style vehicle sim. It will be focused around multiplayer online gameplay and is expected to be free to the public.",
  "categories": ["Desert Combat"],
  "origin": "https://web.archive.org/web/20090909215526/http://www.desertcombat.com/?page=info"
}
