{
  "aberdeen": {
    "created": "2005-06-18",
    "creator": "Trauma Studios, DC Final Team, DC Realism Team",
    "origin": "https://web.archive.org/web/20220611145835/http://www.tanelorn.us/dcr/pages/maps.htm"
  },
  "dc_al_khafji_docks": {
    "created": "2005-06-13",
    "creator": "Trauma Studios, DC Final Team, DC Realism Team",
    "labels": ["0.7"],
    "origin": "https://web.archive.org/web/20220611145835/http://www.tanelorn.us/dcr/pages/maps.htm"
  },
  "dc_basrahs_edge": {
    "created": "2005-06-13",
    "creator": "Trauma Studios, DC Final Team, DC Realism Team",
    "labels": ["0.7"],
    "origin": "https://web.archive.org/web/20220611145835/http://www.tanelorn.us/dcr/pages/maps.htm"
  },
  "dc_battle_of_73_easting": {
    "created": "2005-06-13",
    "creator": "Trauma Studios, DC Final Team, DC Realism Team",
    "labels": ["0.7"],
    "origin": "https://web.archive.org/web/20220611145835/http://www.tanelorn.us/dcr/pages/maps.htm"
  },
  "dc_coastal_hammer": {
    "created": "2005-06-13",
    "creator": "Trauma Studios, DC Final Team, DC Realism Team",
    "labels": ["0.7"],
    "origin": "https://web.archive.org/web/20220611145835/http://www.tanelorn.us/dcr/pages/maps.htm"
  },
  "dc_desertshield": {
    "created": "2005-06-13",
    "creator": "Trauma Studios, DC Final Team, DC Realism Team",
    "labels": ["0.7"],
    "origin": "https://web.archive.org/web/20220611145835/http://www.tanelorn.us/dcr/pages/maps.htm"
  },
  "dc_dustbowl": {
    "created": "2005-06-13",
    "creator": "Trauma Studios, DC Final Team, DC Realism Team",
    "labels": ["0.7"],
    "origin": "https://web.archive.org/web/20220611145835/http://www.tanelorn.us/dcr/pages/maps.htm"
  },
  "dc_lostvillage_nopara": {
    "created": "2005-06-13",
    "creator": "Trauma Studios, DC Final Team, DC Realism Team",
    "labels": ["0.7"],
    "origin": "https://web.archive.org/web/20220611145835/http://www.tanelorn.us/dcr/pages/maps.htm"
  },
  "dc_no_fly_zone_day2": {
    "created": "2005-06-18",
    "creator": "Trauma Studios, DC Final Team, DC Realism Team",
    "title": "No Fly Zone Day 2",
    "labels": ["0.7"],
    "origin": "https://web.archive.org/web/20220611145835/http://www.tanelorn.us/dcr/pages/maps.htm"
  },
  "dc_oil_fields": {
    "created": "2005-06-13",
    "creator": "Trauma Studios, DC Final Team, DC Realism Team",
    "labels": ["0.7"],
    "origin": "https://web.archive.org/web/20220611145835/http://www.tanelorn.us/dcr/pages/maps.htm"
  },
  "dc_sea_rigs": {
    "created": "2005-06-13",
    "creator": "Trauma Studios, DC Final Team, DC Realism Team",
    "labels": ["0.7"],
    "origin": "https://web.archive.org/web/20220611145835/http://www.tanelorn.us/dcr/pages/maps.htm"
  },
  "dc_twin_rivers": {
    "created": "2005-06-13",
    "creator": "Trauma Studios, DC Final Team, DC Realism Team",
    "labels": ["0.7"],
    "origin": "https://web.archive.org/web/20220611145835/http://www.tanelorn.us/dcr/pages/maps.htm"
  },
  "dc_urban_siege": {
    "created": "2005-06-13",
    "creator": "Trauma Studios, DC Final Team, DC Realism Team",
    "labels": ["0.7"],
    "origin": "https://web.archive.org/web/20220611145835/http://www.tanelorn.us/dcr/pages/maps.htm"
  },
  "dc_weapon_bunkers": {
    "created": "2005-06-13",
    "creator": "Trauma Studios, DC Final Team, DC Realism Team",
    "labels": ["0.7"],
    "origin": "https://web.archive.org/web/20220611145835/http://www.tanelorn.us/dcr/pages/maps.htm"
  },
  "dcr_bridge_crossing": {
    "created": "2005-05-09",
    "creator": "Trauma Studios, DC Final Team, DC Realism Team",
    "labels": ["Realism"],
    "origin": "https://web.archive.org/web/20220611145835/http://www.tanelorn.us/dcr/pages/maps.htm"
  },
  "dcr_frontline": {
    "created": "2004-11-13",
    "creator": "Trauma Studios, DC Final Team, DC Realism Team",
    "labels": ["Realism"],
    "description": "Frontlines has a very long view distance and is designed to take advantage of DCR's great land combat features. Battles typically take place at long ranges, and the games feel much closer to historical desert engagements. The Iraqis have excellent dug in positions and so long as they hold them, the coalition loses tickets. The defensive positions are the only capturable locations. Once the coalition has taken both, the Iraqis take major losses in tickets. Both sides have access to artillery, and the coalition has one-time access to an AH-64 gunship and a AC-130 gunship. The Iraqis have a destroyable radome with SA-3 sites protecting it. If it is destroyed, the SA-3s will not respawn. This gives specops something to do which can seriously affect the course of the coalition advance.\nBecause of its large size and need for coordinated teamwork, Frontlines is a map best played with many players.",
    "origin": "https://web.archive.org/web/20220611145835/http://www.tanelorn.us/dcr/pages/maps.htm"
  },
  "dcr_isolated": {
    "created": "2004-11-11",
    "creator": "Trauma Studios, DC Final Team, DC Realism Team",
    "labels": ["Realism"],
    "description": "Isolated takes place in Afghanistan. The coalition's goal is to occupy and secure all the villages surrounding the canyon. This map focuses on infantry fighting, as the coalition is given only light transport helicopters and the OPFOR is given only technicals.\nIsolated was designed to be a day-1 and day-2 map, with day 1 being the capture of villages, and day 2 being the clearing of occupied caves in the canyon. Day 2 was not completed before the release of DCR 1.0.",
    "origin": "https://web.archive.org/web/20220611145835/http://www.tanelorn.us/dcr/pages/maps.htm"
  },
  "dcr_road_to_basrah": {
    "created": "2004-11-26",
    "creator": "Trauma Studios, DC Final Team, DC Realism Team",
    "labels": ["Realism"],
    "description": "Road to Basrah is an infantry focused map which requires the coalition to occupy and secure multiple villages on the outskirts of Basrah. The Iraqis have an uncapturable village on the far end of the map which is the source of numerous technicals and weapons caches. The coalition comes in with several armed HMMWVs and a M2 Bradley. So long as the Iraqis hold the majority of the objectives, the coalition will lose tickets.",
    "origin": "https://web.archive.org/web/20220611145835/http://www.tanelorn.us/dcr/pages/maps.htm"
  },
  "dcr_sweep_and_clear": {
    "created": "2005-04-15",
    "creator": "Trauma Studios, DC Final Team, DC Realism Team",
    "labels": ["Realism"],
    "description": "Sweep and Clear is a great map created by Samurai especially for the DCR 1.0 release, and features the T-55 and the 2 1/2T transport truck. This map primarily focuses on infantry combat. The Iraqis hold two towns, but the primary target is a building with a weapons cache on the outskirts of both towns. Both sides have armor support: the Iraqis have a T-55 and the Coalition have a M2 Bradley. The survival of these vehicles will make a big difference in how the round progresses.",
    "origin": "https://web.archive.org/web/20220611145835/http://www.tanelorn.us/dcr/pages/maps.htm"
  },
  "dcr_trap_day1": {
    "created": "2005-05-07",
    "creator": "Trauma Studios, DC Final Team, DC Realism Team",
    "title": "TRAP",
    "labels": ["Realism"],
    "description": "Tactical Recovery of Aircraft and Personnel. TRAP is a fight over a single strategic area. The coalition have limited ground power, but have the advantage in speed and adaptability with the helicopters in their field base. If the downed aircraft area is not occupied, the opposition will win. In addition to the light equipment available in the town, there is an OFOR IFV returning from patrol which can support the grab for the crash site.",
    "origin": "https://web.archive.org/web/20220611145835/http://www.tanelorn.us/dcr/pages/maps.htm"
  },
  "el_alamein": {
    "created": "2005-06-13",
    "creator": "Trauma Studios, DC Final Team, DC Realism Team",
    "origin": "https://web.archive.org/web/20220611145835/http://www.tanelorn.us/dcr/pages/maps.htm"
  },
  "el_alamein_day3": {
    "created": "2005-06-13",
    "creator": "Trauma Studios, DC Final Team, DC Realism Team",
    "title": "El Alamein Day 3",
    "origin": "https://web.archive.org/web/20220611145835/http://www.tanelorn.us/dcr/pages/maps.htm"
  },
  "gazala": {
    "created": "2005-06-13",
    "creator": "Trauma Studios, DC Final Team, DC Realism Team",
    "origin": "https://web.archive.org/web/20220611145835/http://www.tanelorn.us/dcr/pages/maps.htm"
  },
  "inshallah_valley": {
    "created": "2005-06-13",
    "creator": "Trauma Studios",
    "origin": "https://web.archive.org/web/20220611145835/http://www.tanelorn.us/dcr/pages/maps.htm"
  },
  "midway": {
    "created": "2005-06-13",
    "creator": "Trauma Studios, DC Final Team, DC Realism Team",
    "origin": "https://web.archive.org/web/20220611145835/http://www.tanelorn.us/dcr/pages/maps.htm"
  },
  "tobruk": {
    "created": "2005-06-18",
    "creator": "Trauma Studios, DC Final Team, DC Realism Team",
    "origin": "https://web.archive.org/web/20220611145835/http://www.tanelorn.us/dcr/pages/maps.htm"
  }
}
