{
  "title": "Desert Combat Realism",
  "description": "This mod is an attempt to bring DC gameplay closer to how the real equipment behaves. The mod is designed to appeal to hard-liners and prior service, or just players looking for greater levels of realism and a sterner approach to game balance. It improves immersion by making the equipment behave more closely to what you would expect from real world counterparts. We *HAVE NOT* taken a truly realistic posture, as we all know how superior US equipment is to third world counterparts. On top of changes in behaviors, many new vehicles , firearms, and maps have been created. DCR is especially teamplay oriented. It makes for a great clan-match / scrimmage mod.",
  "categories": ["Desert Combat"],
  "origin": "https://web.archive.org/web/20130629032745/http://www.tanelorn.us/dcr/pages/"
}
